[00:00:00]: 
System Memory:
	Memory Load: 47%
	Available Physical Memory: 8544m/16335m
	Available Page File: 6947m/18767m
	Available Virtual Memory: 3983m/4095m
	Available Extended Virtual Memory: 0m
[00:00:00]: 
Process Memory:
	Peak Working Set Size: 31m
	Working Set Size: 31m
	Quota Peak Page Pool Usage: 218k
	Quota Page Pool Usage: 215k
	Quota Peak Non Paged Pool Usage:17k
	Quota Non Paged Pool Usage: 17k
	Page File Usage: 5m
	Peak Page File Usage: 5m
[00:00:00]: PersistRootStorage is now APP:Klei//DoNotStarveTogether/343078346/Cluster_5/Master/ 
[00:00:00]: Starting Up
[00:00:00]: Version: 418572
[00:00:00]: Current time: Mon Jul 06 20:38:11 2020

[00:00:00]: Don't Starve Together: 418572 WIN32
[00:00:00]: Build Date: 5376
[00:00:00]: Mode: 32-bit
[00:00:00]: Parsing command line
[00:00:00]: Command Line Arguments: -monitor_parent_process 7980 -persistent_storage_root APP:Klei/ -conf_dir DoNotStarveTogether -cluster Cluster_5 -ownernetid 76561198303344074 -ownerdir 343078346 -backup_log_count 10 -backup_log_period 0 -shard Master -sigprefix DST_Master -region Sing 
[00:00:00]: Initializing distribution platform
[00:00:00]: Initializing Minidump handler
[00:00:00]: ....Done
[00:00:00]: ....Done
[00:00:00]: Fixing DPI
[00:00:00]: ...Done
[00:00:00]: THREAD - started 'GAClient' (6704)
[00:00:00]: Mounting file system databundles/klump.zip successful.
[00:00:00]: CurlRequestManager::ClientThread::Main()
[00:00:00]: Mounting file system databundles/shaders.zip successful.
[00:00:00]: Mounting file system databundles/fonts.zip successful.
[00:00:00]: Mounting file system databundles/anim_dynamic.zip successful.
[00:00:00]: Mounting file system databundles/bigportraits.zip successful.
[00:00:00]: Mounting file system databundles/images.zip successful.
[00:00:00]: Mounting file system databundles/scripts.zip successful.
[00:00:00]: ProfileIndex:2.67
[00:00:00]: [Connect] PendingConnection::Reset(true)
[00:00:00]: THREAD - started 'Ping Job Thread' (1184)
[00:00:00]: Platform: 1
[00:00:00]: Network tick rate: U=15(2), D=0
[00:00:00]: Network tick rate: U=15(2), D=0
[00:00:00]: [Warning] Authorized application D:\Games\Dota2\steamapps\common\Don't Starve Together\bin\dontstarve_dedicated_server_nullrenderer.exe is not setup in the firewall.
[00:00:00]: Authorized application D:\Games\Dota2\steamapps\common\Don't Starve Together\bin\dontstarve_dedicated_server_nullrenderer.exe is now enabled in the firewall.
[00:00:00]: Overriding region to Sing
[00:00:00]: THREAD - started 'StreamInput' (21820)
[00:00:00]: OnLoadPermissionList: APP:Klei//DoNotStarveTogether/343078346/client_save/blocklist.txt (Failure)
[00:00:00]: OnLoadPermissionList: APP:Klei//DoNotStarveTogether/343078346/client_save/adminlist.txt (Failure)
[00:00:00]: OnLoadUserIdList: APP:Klei//DoNotStarveTogether/343078346/client_save/whitelist.txt (Failure)
[00:00:00]: Offline user ID: OU_76561198303344074
[00:00:00]: Token retrieved from: APP:Klei//DoNotStarveTogether/343078346/Cluster_5/cluster_token.txt
[00:00:00]: Token retrieved from: APP:Klei//DoNotStarveTogether/343078346/Cluster_5/cluster_token.txt
[00:00:00]: HardwareStats:
  OS                        
    name                      Microsoft Windows 10 Education
    version                   10.0.18363
    architecture              64-bit
    platformSpecific          SP 0.0
  CPU                       
    numCores                  6
    features                  SSE,SSE2,SSE3,SSSE3,SSE41,SSE42,AVX
    name                      Intel(R) Core(TM) i7-8700 CPU @ 3.20GHz
    manufacturer              GenuineIntel
    clockSpeed                3192
  RAM                       
    megsOfRam                 16384
  GPU                       
    name                      NVIDIA Quadro P2000
    driverDate                20200621000000.000000-000
    megsOfRam                 4095
    refreshRate               60
    videoModeDescription      1920 x 1080 x 4294967296 colors
    driverVersion             27.21.14.5148

[00:00:00]: cGame::InitializeOnMainThread
[00:00:00]: Renderer initialize: Okay
[00:00:00]: AnimManager initialize: Okay
[00:00:00]: Buffers initialize: Okay
[00:00:00]: cDontStarveGame::DoGameSpecificInitialize()
[00:00:00]: GameSpecific initialize: Okay
[00:00:00]: cGame::StartPlaying
[00:00:00]: LOADING LUA
[00:00:00]: DoLuaFile scripts/main.lua
[00:00:00]: DoLuaFile loading buffer scripts/main.lua
[00:00:00]:   taskgrouplist:	default	Together	
[00:00:00]:   taskgrouplist:	classic	Classic	
[00:00:00]:   taskgrouplist:	cave_default	Underground	
[00:00:00]:   taskgrouplist:	lavaarena_taskset	The Forge	
[00:00:00]:   taskgrouplist:	quagmire_taskset	The Gorge	
[00:00:00]: running main.lua
	
[00:00:00]: loaded modindex	
[00:00:00]: ModIndex: Beginning normal load sequence for dedicated server.
	
[00:00:00]: DownloadMods(0)
[00:00:00]: modoverrides.lua enabling workshop-1207269058	
[00:00:00]: modoverrides.lua enabling workshop-374550642	
[00:00:00]: modoverrides.lua enabling workshop-666155465	
[00:00:00]: modoverrides.lua enabling workshop-661253977	
[00:00:00]: modoverrides.lua enabling workshop-378160973	
[00:00:00]: modoverrides.lua enabling workshop-375850593	
[00:00:00]: modoverrides.lua enabling workshop-2078243581	
[00:00:00]: ModIndex:GetModsToLoad inserting moddir, 	workshop-1207269058	
[00:00:00]: ModIndex:GetModsToLoad inserting moddir, 	workshop-2078243581	
[00:00:00]: ModIndex:GetModsToLoad inserting moddir, 	workshop-374550642	
[00:00:00]: ModIndex:GetModsToLoad inserting moddir, 	workshop-375850593	
[00:00:00]: ModIndex:GetModsToLoad inserting moddir, 	workshop-378160973	
[00:00:00]: ModIndex:GetModsToLoad inserting moddir, 	workshop-661253977	
[00:00:00]: ModIndex:GetModsToLoad inserting moddir, 	workshop-666155465	
[00:00:00]: Could not load mod_config_data/modconfiguration_workshop-1207269058_CLIENT	
[00:00:00]: applying configuration_options from modoverrides.lua to mod workshop-1207269058	
[00:00:00]: applying configuration_options from modoverrides.lua to mod workshop-374550642	
[00:00:00]: Overriding mod workshop-374550642's option MAXSTACKSIZE with value 250	
[00:00:00]: applying configuration_options from modoverrides.lua to mod workshop-666155465	
[00:00:00]: Overriding mod workshop-666155465's option chestR with value -1	
[00:00:00]: Overriding mod workshop-666155465's option food_style with value 0	
[00:00:00]: Overriding mod workshop-666155465's option show_uses with value -1	
[00:00:00]: Overriding mod workshop-666155465's option show_food_units with value -1	
[00:00:00]: Overriding mod workshop-666155465's option lang with value auto	
[00:00:00]: Overriding mod workshop-666155465's option chestB with value -1	
[00:00:00]: Overriding mod workshop-666155465's option food_order with value 0	
[00:00:00]: Overriding mod workshop-666155465's option chestG with value -1	
[00:00:00]: Overriding mod workshop-666155465's option food_estimation with value -1	
[00:00:00]: applying configuration_options from modoverrides.lua to mod workshop-661253977	
[00:00:00]: Overriding mod workshop-661253977's option baodiao with value 1	
[00:00:00]: Overriding mod workshop-661253977's option amudiao with value true	
[00:00:00]: Overriding mod workshop-661253977's option zbdiao with value true	
[00:00:00]: Overriding mod workshop-661253977's option kong with value 0	
[00:00:00]: Overriding mod workshop-661253977's option rendiao with value 2	
[00:00:00]: applying configuration_options from modoverrides.lua to mod workshop-378160973	
[00:00:00]: Overriding mod workshop-378160973's option FIREOPTIONS with value 2	
[00:00:00]: Overriding mod workshop-378160973's option SHOWFIREICONS with value true	
[00:00:00]: Overriding mod workshop-378160973's option SHAREMINIMAPPROGRESS with value true	
[00:00:00]: Overriding mod workshop-378160973's option SHOWPLAYERICONS with value true	
[00:00:00]: Overriding mod workshop-378160973's option OVERRIDEMODE with value false	
[00:00:00]: Overriding mod workshop-378160973's option SHOWPLAYERSOPTIONS with value 2	
[00:00:00]: Overriding mod workshop-378160973's option ENABLEPINGS with value true	
[00:00:00]: applying configuration_options from modoverrides.lua to mod workshop-375850593	
[00:00:00]: applying configuration_options from modoverrides.lua to mod workshop-2078243581	
[00:00:00]: Overriding mod workshop-2078243581's option Type with value hit	
[00:00:00]: Overriding mod workshop-2078243581's option Blue with value 0	
[00:00:00]: Overriding mod workshop-2078243581's option Green with value 0	
[00:00:00]: Overriding mod workshop-2078243581's option Display with value target	
[00:00:00]: Overriding mod workshop-2078243581's option Projectile with value true	
[00:00:00]: Overriding mod workshop-2078243581's option Red with value 1	
[00:00:00]: Loading mod: workshop-1207269058 ( Simple Health Bar DST) Version:2.12	
[00:00:00]: Could not load mod_config_data/modconfiguration_workshop-2078243581_CLIENT	
[00:00:00]: applying configuration_options from modoverrides.lua to mod workshop-1207269058	
[00:00:00]: applying configuration_options from modoverrides.lua to mod workshop-374550642	
[00:00:00]: Overriding mod workshop-374550642's option MAXSTACKSIZE with value 250	
[00:00:00]: applying configuration_options from modoverrides.lua to mod workshop-666155465	
[00:00:00]: Overriding mod workshop-666155465's option chestR with value -1	
[00:00:00]: Overriding mod workshop-666155465's option food_style with value 0	
[00:00:00]: Overriding mod workshop-666155465's option show_uses with value -1	
[00:00:00]: Overriding mod workshop-666155465's option show_food_units with value -1	
[00:00:00]: Overriding mod workshop-666155465's option lang with value auto	
[00:00:00]: Overriding mod workshop-666155465's option chestB with value -1	
[00:00:00]: Overriding mod workshop-666155465's option food_order with value 0	
[00:00:00]: Overriding mod workshop-666155465's option chestG with value -1	
[00:00:00]: Overriding mod workshop-666155465's option food_estimation with value -1	
[00:00:00]: applying configuration_options from modoverrides.lua to mod workshop-661253977	
[00:00:00]: Overriding mod workshop-661253977's option baodiao with value 1	
[00:00:00]: Overriding mod workshop-661253977's option amudiao with value true	
[00:00:00]: Overriding mod workshop-661253977's option zbdiao with value true	
[00:00:00]: Overriding mod workshop-661253977's option kong with value 0	
[00:00:00]: Overriding mod workshop-661253977's option rendiao with value 2	
[00:00:00]: applying configuration_options from modoverrides.lua to mod workshop-378160973	
[00:00:00]: Overriding mod workshop-378160973's option FIREOPTIONS with value 2	
[00:00:00]: Overriding mod workshop-378160973's option SHOWFIREICONS with value true	
[00:00:00]: Overriding mod workshop-378160973's option SHAREMINIMAPPROGRESS with value true	
[00:00:00]: Overriding mod workshop-378160973's option SHOWPLAYERICONS with value true	
[00:00:00]: Overriding mod workshop-378160973's option OVERRIDEMODE with value false	
[00:00:00]: Overriding mod workshop-378160973's option SHOWPLAYERSOPTIONS with value 2	
[00:00:00]: Overriding mod workshop-378160973's option ENABLEPINGS with value true	
[00:00:00]: applying configuration_options from modoverrides.lua to mod workshop-375850593	
[00:00:00]: applying configuration_options from modoverrides.lua to mod workshop-2078243581	
[00:00:00]: Overriding mod workshop-2078243581's option Type with value hit	
[00:00:00]: Overriding mod workshop-2078243581's option Blue with value 0	
[00:00:00]: Overriding mod workshop-2078243581's option Green with value 0	
[00:00:00]: Overriding mod workshop-2078243581's option Display with value target	
[00:00:00]: Overriding mod workshop-2078243581's option Projectile with value true	
[00:00:00]: Overriding mod workshop-2078243581's option Red with value 1	
[00:00:00]: Loading mod: workshop-2078243581 (Display Attack Range) Version:1.5	
[00:00:00]: Could not load mod_config_data/modconfiguration_workshop-374550642_CLIENT	
[00:00:00]: applying configuration_options from modoverrides.lua to mod workshop-1207269058	
[00:00:00]: applying configuration_options from modoverrides.lua to mod workshop-374550642	
[00:00:00]: Overriding mod workshop-374550642's option MAXSTACKSIZE with value 250	
[00:00:00]: applying configuration_options from modoverrides.lua to mod workshop-666155465	
[00:00:00]: Overriding mod workshop-666155465's option chestR with value -1	
[00:00:00]: Overriding mod workshop-666155465's option food_style with value 0	
[00:00:00]: Overriding mod workshop-666155465's option show_uses with value -1	
[00:00:00]: Overriding mod workshop-666155465's option show_food_units with value -1	
[00:00:00]: Overriding mod workshop-666155465's option lang with value auto	
[00:00:00]: Overriding mod workshop-666155465's option chestB with value -1	
[00:00:00]: Overriding mod workshop-666155465's option food_order with value 0	
[00:00:00]: Overriding mod workshop-666155465's option chestG with value -1	
[00:00:00]: Overriding mod workshop-666155465's option food_estimation with value -1	
[00:00:00]: applying configuration_options from modoverrides.lua to mod workshop-661253977	
[00:00:00]: Overriding mod workshop-661253977's option baodiao with value 1	
[00:00:00]: Overriding mod workshop-661253977's option amudiao with value true	
[00:00:00]: Overriding mod workshop-661253977's option zbdiao with value true	
[00:00:00]: Overriding mod workshop-661253977's option kong with value 0	
[00:00:00]: Overriding mod workshop-661253977's option rendiao with value 2	
[00:00:00]: applying configuration_options from modoverrides.lua to mod workshop-378160973	
[00:00:00]: Overriding mod workshop-378160973's option FIREOPTIONS with value 2	
[00:00:00]: Overriding mod workshop-378160973's option SHOWFIREICONS with value true	
[00:00:00]: Overriding mod workshop-378160973's option SHAREMINIMAPPROGRESS with value true	
[00:00:00]: Overriding mod workshop-378160973's option SHOWPLAYERICONS with value true	
[00:00:00]: Overriding mod workshop-378160973's option OVERRIDEMODE with value false	
[00:00:00]: Overriding mod workshop-378160973's option SHOWPLAYERSOPTIONS with value 2	
[00:00:00]: Overriding mod workshop-378160973's option ENABLEPINGS with value true	
[00:00:00]: applying configuration_options from modoverrides.lua to mod workshop-375850593	
[00:00:00]: applying configuration_options from modoverrides.lua to mod workshop-2078243581	
[00:00:00]: Overriding mod workshop-2078243581's option Type with value hit	
[00:00:00]: Overriding mod workshop-2078243581's option Blue with value 0	
[00:00:00]: Overriding mod workshop-2078243581's option Green with value 0	
[00:00:00]: Overriding mod workshop-2078243581's option Display with value target	
[00:00:00]: Overriding mod workshop-2078243581's option Projectile with value true	
[00:00:00]: Overriding mod workshop-2078243581's option Red with value 1	
[00:00:00]: Loading mod: workshop-374550642 (Increased Stack size) Version:1.62	
[00:00:00]: Could not load mod_config_data/modconfiguration_workshop-375850593_CLIENT	
[00:00:00]: applying configuration_options from modoverrides.lua to mod workshop-1207269058	
[00:00:00]: applying configuration_options from modoverrides.lua to mod workshop-374550642	
[00:00:00]: Overriding mod workshop-374550642's option MAXSTACKSIZE with value 250	
[00:00:00]: applying configuration_options from modoverrides.lua to mod workshop-666155465	
[00:00:00]: Overriding mod workshop-666155465's option chestR with value -1	
[00:00:00]: Overriding mod workshop-666155465's option food_style with value 0	
[00:00:00]: Overriding mod workshop-666155465's option show_uses with value -1	
[00:00:00]: Overriding mod workshop-666155465's option show_food_units with value -1	
[00:00:00]: Overriding mod workshop-666155465's option lang with value auto	
[00:00:00]: Overriding mod workshop-666155465's option chestB with value -1	
[00:00:00]: Overriding mod workshop-666155465's option food_order with value 0	
[00:00:00]: Overriding mod workshop-666155465's option chestG with value -1	
[00:00:00]: Overriding mod workshop-666155465's option food_estimation with value -1	
[00:00:00]: applying configuration_options from modoverrides.lua to mod workshop-661253977	
[00:00:00]: Overriding mod workshop-661253977's option baodiao with value 1	
[00:00:00]: Overriding mod workshop-661253977's option amudiao with value true	
[00:00:00]: Overriding mod workshop-661253977's option zbdiao with value true	
[00:00:00]: Overriding mod workshop-661253977's option kong with value 0	
[00:00:00]: Overriding mod workshop-661253977's option rendiao with value 2	
[00:00:00]: applying configuration_options from modoverrides.lua to mod workshop-378160973	
[00:00:00]: Overriding mod workshop-378160973's option FIREOPTIONS with value 2	
[00:00:00]: Overriding mod workshop-378160973's option SHOWFIREICONS with value true	
[00:00:00]: Overriding mod workshop-378160973's option SHAREMINIMAPPROGRESS with value true	
[00:00:00]: Overriding mod workshop-378160973's option SHOWPLAYERICONS with value true	
[00:00:00]: Overriding mod workshop-378160973's option OVERRIDEMODE with value false	
[00:00:00]: Overriding mod workshop-378160973's option SHOWPLAYERSOPTIONS with value 2	
[00:00:00]: Overriding mod workshop-378160973's option ENABLEPINGS with value true	
[00:00:00]: applying configuration_options from modoverrides.lua to mod workshop-375850593	
[00:00:00]: applying configuration_options from modoverrides.lua to mod workshop-2078243581	
[00:00:00]: Overriding mod workshop-2078243581's option Type with value hit	
[00:00:00]: Overriding mod workshop-2078243581's option Blue with value 0	
[00:00:00]: Overriding mod workshop-2078243581's option Green with value 0	
[00:00:00]: Overriding mod workshop-2078243581's option Display with value target	
[00:00:00]: Overriding mod workshop-2078243581's option Projectile with value true	
[00:00:00]: Overriding mod workshop-2078243581's option Red with value 1	
[00:00:00]: Loading mod: workshop-375850593 (Extra Equip Slots) Version:1.8.0	
[00:00:00]: Could not load mod_config_data/modconfiguration_workshop-378160973_CLIENT	
[00:00:00]: applying configuration_options from modoverrides.lua to mod workshop-1207269058	
[00:00:00]: applying configuration_options from modoverrides.lua to mod workshop-374550642	
[00:00:00]: Overriding mod workshop-374550642's option MAXSTACKSIZE with value 250	
[00:00:00]: applying configuration_options from modoverrides.lua to mod workshop-666155465	
[00:00:00]: Overriding mod workshop-666155465's option chestR with value -1	
[00:00:00]: Overriding mod workshop-666155465's option food_style with value 0	
[00:00:00]: Overriding mod workshop-666155465's option show_uses with value -1	
[00:00:00]: Overriding mod workshop-666155465's option show_food_units with value -1	
[00:00:00]: Overriding mod workshop-666155465's option lang with value auto	
[00:00:00]: Overriding mod workshop-666155465's option chestB with value -1	
[00:00:00]: Overriding mod workshop-666155465's option food_order with value 0	
[00:00:00]: Overriding mod workshop-666155465's option chestG with value -1	
[00:00:00]: Overriding mod workshop-666155465's option food_estimation with value -1	
[00:00:00]: applying configuration_options from modoverrides.lua to mod workshop-661253977	
[00:00:00]: Overriding mod workshop-661253977's option baodiao with value 1	
[00:00:00]: Overriding mod workshop-661253977's option amudiao with value true	
[00:00:00]: Overriding mod workshop-661253977's option zbdiao with value true	
[00:00:00]: Overriding mod workshop-661253977's option kong with value 0	
[00:00:00]: Overriding mod workshop-661253977's option rendiao with value 2	
[00:00:00]: applying configuration_options from modoverrides.lua to mod workshop-378160973	
[00:00:00]: Overriding mod workshop-378160973's option FIREOPTIONS with value 2	
[00:00:00]: Overriding mod workshop-378160973's option SHOWFIREICONS with value true	
[00:00:00]: Overriding mod workshop-378160973's option SHAREMINIMAPPROGRESS with value true	
[00:00:00]: Overriding mod workshop-378160973's option SHOWPLAYERICONS with value true	
[00:00:00]: Overriding mod workshop-378160973's option OVERRIDEMODE with value false	
[00:00:00]: Overriding mod workshop-378160973's option SHOWPLAYERSOPTIONS with value 2	
[00:00:00]: Overriding mod workshop-378160973's option ENABLEPINGS with value true	
[00:00:00]: applying configuration_options from modoverrides.lua to mod workshop-375850593	
[00:00:00]: applying configuration_options from modoverrides.lua to mod workshop-2078243581	
[00:00:00]: Overriding mod workshop-2078243581's option Type with value hit	
[00:00:00]: Overriding mod workshop-2078243581's option Blue with value 0	
[00:00:00]: Overriding mod workshop-2078243581's option Green with value 0	
[00:00:00]: Overriding mod workshop-2078243581's option Display with value target	
[00:00:00]: Overriding mod workshop-2078243581's option Projectile with value true	
[00:00:00]: Overriding mod workshop-2078243581's option Red with value 1	
[00:00:00]: Loading mod: workshop-378160973 (Global Positions) Version:1.7.3	
[00:00:00]: Could not load mod_config_data/modconfiguration_workshop-661253977_CLIENT	
[00:00:00]: applying configuration_options from modoverrides.lua to mod workshop-1207269058	
[00:00:00]: applying configuration_options from modoverrides.lua to mod workshop-374550642	
[00:00:00]: Overriding mod workshop-374550642's option MAXSTACKSIZE with value 250	
[00:00:00]: applying configuration_options from modoverrides.lua to mod workshop-666155465	
[00:00:00]: Overriding mod workshop-666155465's option chestR with value -1	
[00:00:00]: Overriding mod workshop-666155465's option food_style with value 0	
[00:00:00]: Overriding mod workshop-666155465's option show_uses with value -1	
[00:00:00]: Overriding mod workshop-666155465's option show_food_units with value -1	
[00:00:00]: Overriding mod workshop-666155465's option lang with value auto	
[00:00:00]: Overriding mod workshop-666155465's option chestB with value -1	
[00:00:00]: Overriding mod workshop-666155465's option food_order with value 0	
[00:00:00]: Overriding mod workshop-666155465's option chestG with value -1	
[00:00:00]: Overriding mod workshop-666155465's option food_estimation with value -1	
[00:00:00]: applying configuration_options from modoverrides.lua to mod workshop-661253977	
[00:00:00]: Overriding mod workshop-661253977's option baodiao with value 1	
[00:00:00]: Overriding mod workshop-661253977's option amudiao with value true	
[00:00:00]: Overriding mod workshop-661253977's option zbdiao with value true	
[00:00:00]: Overriding mod workshop-661253977's option kong with value 0	
[00:00:00]: Overriding mod workshop-661253977's option rendiao with value 2	
[00:00:00]: applying configuration_options from modoverrides.lua to mod workshop-378160973	
[00:00:00]: Overriding mod workshop-378160973's option FIREOPTIONS with value 2	
[00:00:00]: Overriding mod workshop-378160973's option SHOWFIREICONS with value true	
[00:00:00]: Overriding mod workshop-378160973's option SHAREMINIMAPPROGRESS with value true	
[00:00:00]: Overriding mod workshop-378160973's option SHOWPLAYERICONS with value true	
[00:00:00]: Overriding mod workshop-378160973's option OVERRIDEMODE with value false	
[00:00:00]: Overriding mod workshop-378160973's option SHOWPLAYERSOPTIONS with value 2	
[00:00:00]: Overriding mod workshop-378160973's option ENABLEPINGS with value true	
[00:00:00]: applying configuration_options from modoverrides.lua to mod workshop-375850593	
[00:00:00]: applying configuration_options from modoverrides.lua to mod workshop-2078243581	
[00:00:00]: Overriding mod workshop-2078243581's option Type with value hit	
[00:00:00]: Overriding mod workshop-2078243581's option Blue with value 0	
[00:00:00]: Overriding mod workshop-2078243581's option Green with value 0	
[00:00:00]: Overriding mod workshop-2078243581's option Display with value target	
[00:00:00]: Overriding mod workshop-2078243581's option Projectile with value true	
[00:00:00]: Overriding mod workshop-2078243581's option Red with value 1	
[00:00:00]: Loading mod: workshop-661253977 ( Don't Drop Everything) Version:170403.21:59	
[00:00:00]: Could not load mod_config_data/modconfiguration_workshop-666155465_CLIENT	
[00:00:00]: applying configuration_options from modoverrides.lua to mod workshop-1207269058	
[00:00:00]: applying configuration_options from modoverrides.lua to mod workshop-374550642	
[00:00:00]: Overriding mod workshop-374550642's option MAXSTACKSIZE with value 250	
[00:00:00]: applying configuration_options from modoverrides.lua to mod workshop-666155465	
[00:00:00]: Overriding mod workshop-666155465's option chestR with value -1	
[00:00:00]: Overriding mod workshop-666155465's option food_style with value 0	
[00:00:00]: Overriding mod workshop-666155465's option show_uses with value -1	
[00:00:00]: Overriding mod workshop-666155465's option show_food_units with value -1	
[00:00:00]: Overriding mod workshop-666155465's option lang with value auto	
[00:00:00]: Overriding mod workshop-666155465's option chestB with value -1	
[00:00:00]: Overriding mod workshop-666155465's option food_order with value 0	
[00:00:00]: Overriding mod workshop-666155465's option chestG with value -1	
[00:00:00]: Overriding mod workshop-666155465's option food_estimation with value -1	
[00:00:00]: applying configuration_options from modoverrides.lua to mod workshop-661253977	
[00:00:00]: Overriding mod workshop-661253977's option baodiao with value 1	
[00:00:00]: Overriding mod workshop-661253977's option amudiao with value true	
[00:00:00]: Overriding mod workshop-661253977's option zbdiao with value true	
[00:00:00]: Overriding mod workshop-661253977's option kong with value 0	
[00:00:00]: Overriding mod workshop-661253977's option rendiao with value 2	
[00:00:00]: applying configuration_options from modoverrides.lua to mod workshop-378160973	
[00:00:00]: Overriding mod workshop-378160973's option FIREOPTIONS with value 2	
[00:00:00]: Overriding mod workshop-378160973's option SHOWFIREICONS with value true	
[00:00:00]: Overriding mod workshop-378160973's option SHAREMINIMAPPROGRESS with value true	
[00:00:00]: Overriding mod workshop-378160973's option SHOWPLAYERICONS with value true	
[00:00:00]: Overriding mod workshop-378160973's option OVERRIDEMODE with value false	
[00:00:00]: Overriding mod workshop-378160973's option SHOWPLAYERSOPTIONS with value 2	
[00:00:00]: Overriding mod workshop-378160973's option ENABLEPINGS with value true	
[00:00:00]: applying configuration_options from modoverrides.lua to mod workshop-375850593	
[00:00:00]: applying configuration_options from modoverrides.lua to mod workshop-2078243581	
[00:00:00]: Overriding mod workshop-2078243581's option Type with value hit	
[00:00:00]: Overriding mod workshop-2078243581's option Blue with value 0	
[00:00:00]: Overriding mod workshop-2078243581's option Green with value 0	
[00:00:00]: Overriding mod workshop-2078243581's option Display with value target	
[00:00:00]: Overriding mod workshop-2078243581's option Projectile with value true	
[00:00:00]: Overriding mod workshop-2078243581's option Red with value 1	
[00:00:00]: Loading mod: workshop-666155465 (Show Me (Origin)) Version:0.50	
[00:00:00]: Mod: workshop-375850593 (Extra Equip Slots)	Loading modworldgenmain.lua	
[00:00:00]: Mod: workshop-375850593 (Extra Equip Slots)	  Mod had no modworldgenmain.lua. Skipping.	
[00:00:00]: Mod: workshop-375850593 (Extra Equip Slots)	Loading modmain.lua	
[00:00:00]: Mod: workshop-666155465 (Show Me (Origin))	Loading modworldgenmain.lua	
[00:00:00]: Mod: workshop-666155465 (Show Me (Origin))	  Mod had no modworldgenmain.lua. Skipping.	
[00:00:00]: Mod: workshop-666155465 (Show Me (Origin))	Loading modmain.lua	
[00:00:00]: ShowMe version:	0.50	
[00:00:00]: show_food_units	-1	-1	-1	
[00:00:00]: show_uses	-1	-1	-1	
[00:00:00]: Mod: workshop-374550642 (Increased Stack size)	Loading modworldgenmain.lua	
[00:00:00]: Mod: workshop-374550642 (Increased Stack size)	  Mod had no modworldgenmain.lua. Skipping.	
[00:00:00]: Mod: workshop-374550642 (Increased Stack size)	Loading modmain.lua	
[00:00:00]: Mod: workshop-2078243581 (Display Attack Range)	Loading modworldgenmain.lua	
[00:00:00]: Mod: workshop-2078243581 (Display Attack Range)	  Mod had no modworldgenmain.lua. Skipping.	
[00:00:00]: Mod: workshop-2078243581 (Display Attack Range)	Loading modmain.lua	
[00:00:00]: Mod: workshop-661253977 ( Don't Drop Everything)	Loading modworldgenmain.lua	
[00:00:00]: Mod: workshop-661253977 ( Don't Drop Everything)	  Mod had no modworldgenmain.lua. Skipping.	
[00:00:00]: Mod: workshop-661253977 ( Don't Drop Everything)	Loading modmain.lua	
[00:00:01]: Mod: workshop-378160973 (Global Positions)	Loading modworldgenmain.lua	
[00:00:01]: Mod: workshop-378160973 (Global Positions)	  Mod had no modworldgenmain.lua. Skipping.	
[00:00:01]: Mod: workshop-378160973 (Global Positions)	Loading modmain.lua	
[00:00:01]: ModIndex:GetModsToLoad inserting moddir, 	workshop-1207269058	
[00:00:01]: ModIndex:GetModsToLoad inserting moddir, 	workshop-2078243581	
[00:00:01]: ModIndex:GetModsToLoad inserting moddir, 	workshop-374550642	
[00:00:01]: ModIndex:GetModsToLoad inserting moddir, 	workshop-375850593	
[00:00:01]: ModIndex:GetModsToLoad inserting moddir, 	workshop-378160973	
[00:00:01]: ModIndex:GetModsToLoad inserting moddir, 	workshop-661253977	
[00:00:01]: ModIndex:GetModsToLoad inserting moddir, 	workshop-666155465	
[00:00:01]: Mod: workshop-1207269058 ( Simple Health Bar DST)	Loading modworldgenmain.lua	
[00:00:01]: Mod: workshop-1207269058 ( Simple Health Bar DST)	  Mod had no modworldgenmain.lua. Skipping.	
[00:00:01]: Mod: workshop-1207269058 ( Simple Health Bar DST)	Loading modmain.lua	
[00:00:01]: Event data unavailable: lavaarena_event_server/lavaarena_achievement_quest_defs
[00:00:02]: LOADING LUA SUCCESS
[00:00:02]: Registering mod namespace "workshop-1207269058"
[00:00:02]: Registering mod namespace "showmeshint"
[00:00:02]: Registering mod namespace "workshop-378160973"
[00:00:02]: Registering mod namespace "showme"
[00:00:02]: PlayerDeaths could not load morgue	
[00:00:02]: PlayerHistory could not load player_history	
[00:00:02]: ServerPreferences could not load server_preferences	
[00:00:02]: bloom_enabled	false	
[00:00:02]: loaded saveindex	
[00:00:02]: OnFilesLoaded()	
[00:00:02]: OnUpdatePurchaseStateComplete	
[00:00:02]: Klump load on boot started.	
[00:00:02]: Klump files loaded: 	0	
[00:00:03]: Mod: workshop-375850593 (Extra Equip Slots)	Registering prefabs	
[00:00:03]: Mod: workshop-375850593 (Extra Equip Slots)	  Registering default mod prefab	
[00:00:03]: Mod: workshop-666155465 (Show Me (Origin))	Registering prefabs	
[00:00:03]: Mod: workshop-666155465 (Show Me (Origin))	  Registering default mod prefab	
[00:00:03]: Mod: workshop-374550642 (Increased Stack size)	Registering prefabs	
[00:00:03]: Mod: workshop-374550642 (Increased Stack size)	  Registering default mod prefab	
[00:00:03]: Mod: workshop-2078243581 (Display Attack Range)	Registering prefabs	
[00:00:03]: Mod: workshop-2078243581 (Display Attack Range)	  Registering prefab file: prefabs/display_attack_range	
[00:00:03]: Mod: workshop-2078243581 (Display Attack Range)	    display_attack_range	
[00:00:03]: Mod: workshop-2078243581 (Display Attack Range)	  Registering default mod prefab	
[00:00:03]: Mod: workshop-661253977 ( Don't Drop Everything)	Registering prefabs	
[00:00:03]: Mod: workshop-661253977 ( Don't Drop Everything)	  Registering default mod prefab	
[00:00:03]: Mod: workshop-378160973 (Global Positions)	Registering prefabs	
[00:00:03]: Mod: workshop-378160973 (Global Positions)	  Registering prefab file: prefabs/globalposition_classified	
[00:00:03]: Mod: workshop-378160973 (Global Positions)	    globalposition_classified	
[00:00:03]: Mod: workshop-378160973 (Global Positions)	  Registering prefab file: prefabs/smoketrail	
[00:00:03]: Mod: workshop-378160973 (Global Positions)	    smoketrail	
[00:00:03]: Mod: workshop-378160973 (Global Positions)	  Registering prefab file: prefabs/globalmapicon_noproxy	
[00:00:03]: Mod: workshop-378160973 (Global Positions)	    globalmapicon_noproxy	
[00:00:03]: Mod: workshop-378160973 (Global Positions)	  Registering prefab file: prefabs/worldmapexplorer	
[00:00:03]: Mod: workshop-378160973 (Global Positions)	    worldmapexplorer	
[00:00:03]: Mod: workshop-378160973 (Global Positions)	  Registering prefab file: prefabs/pings	
[00:00:03]: Mod: workshop-378160973 (Global Positions)	    ping_generic	
[00:00:03]: Mod: workshop-378160973 (Global Positions)	    ping_omw	
[00:00:03]: Mod: workshop-378160973 (Global Positions)	    ping_danger	
[00:00:03]: Mod: workshop-378160973 (Global Positions)	    ping_explore	
[00:00:03]: Mod: workshop-378160973 (Global Positions)	    ping_gohere	
[00:00:03]: Mod: workshop-378160973 (Global Positions)	  Registering default mod prefab	
[00:00:03]: Mod: workshop-1207269058 ( Simple Health Bar DST)	Registering prefabs	
[00:00:03]: Mod: workshop-1207269058 ( Simple Health Bar DST)	  Registering prefab file: prefabs/dychealthbar	
[00:00:04]: Mod: workshop-1207269058 ( Simple Health Bar DST)	    dyc_damagedisplay	
[00:00:04]: Mod: workshop-1207269058 ( Simple Health Bar DST)	    dyc_healthbarchild	
[00:00:04]: Mod: workshop-1207269058 ( Simple Health Bar DST)	    dyc_healthbar	
[00:00:04]: Mod: workshop-1207269058 ( Simple Health Bar DST)	  Registering default mod prefab	
[00:00:04]: 	Load FE	
[00:00:04]: 	Load FE: done	
[00:00:04]: THREAD - started 'FilesExistAsyncThread' (17556)
[00:00:04]: FilesExistAsyncThread started (15750 files)...
[00:00:04]: Check for write access: TRUE
[00:00:04]: Check for read access: TRUE
[00:00:04]: ModIndex: Load sequence finished successfully.	
[00:00:04]: Reset() returning
[00:00:04]: [IPC] Signal 'DST_Master_Kill' opened  #00000500
[00:00:04]: [IPC] Registering handler for signal #00000500
[00:00:04]: [IPC] Handle #00000500 added to the Eventhandles
[00:00:04]: [IPC] Signal 'DST_Master_Starting' opened  #00000548
[00:00:04]: [IPC] Sending signal... #00000548
[00:00:04]: [200] Account Communication Success (6)
[00:00:04]: Received (KU_5rWXYUby) from TokenPurpose
[00:00:04]: Starting Dedicated Server Game	
[00:00:04]: Network tick rate: U=15(2), D=0
[00:00:04]: About to start a server with the following settings:
[00:00:04]:   Dedicated: true
[00:00:04]:   Online: true
[00:00:04]:   Passworded: true
[00:00:04]:   ServerPort: 10999
[00:00:04]:   SteamAuthPort: 8766
[00:00:04]:   SteamMasterServerPort: 27016
[00:00:04]:   ClanID: false
[00:00:04]:   ClanOnly: false
[00:00:04]:   ClanAdmin: false
[00:00:04]:   LanOnly: false
[00:00:04]:   FriendsOnly: false
[00:00:04]:   EnableAutosaver: true
[00:00:04]:   EncodeUserPath: true
[00:00:04]:   PVP: false
[00:00:04]:   MaxPlayers: 6
[00:00:04]:   GameMode: survival
[00:00:04]:   OverridenDNS: 
[00:00:04]:   PauseWhenEmpty: true
[00:00:04]:   IdleTimeout: 1800s
[00:00:04]:   VoteEnabled: false
[00:00:04]:   InternetBroadcasting: true
[00:00:04]:   Intent: social
[00:00:04]: [Warning] Could not confirm port 10999 is open in the firewall. 
[00:00:04]: Could not load mod_config_data/modconfiguration_workshop-378160973	
[00:00:04]: Could not load mod_config_data/modconfiguration_workshop-1207269058	
[00:00:04]: Could not load mod_config_data/modconfiguration_workshop-666155465	
[00:00:04]: Could not load mod_config_data/modconfiguration_workshop-375850593	
[00:00:04]: Could not load mod_config_data/modconfiguration_workshop-374550642	
[00:00:04]: Could not load mod_config_data/modconfiguration_workshop-2078243581	
[00:00:05]: Online Server Started on port: 10999
[00:00:05]: Collecting garbage...
[00:00:05]: lua_gc took 0.02 seconds
[00:00:05]: ~ShardLuaProxy()
[00:00:05]: ~cEventLeaderboardProxy()
[00:00:05]: ~ItemServerLuaProxy()
[00:00:05]: ~InventoryLuaProxy()
[00:00:05]: ~NetworkLuaProxy()
[00:00:05]: ~SimLuaProxy()
[00:00:05]: FilesExistAsyncThread aborted.
[00:00:05]: ... FilesExistAsyncThread complete
[00:00:05]: lua_close took 0.04 seconds
[00:00:05]: ReleaseAll
[00:00:05]: ReleaseAll Finished
[00:00:05]: cGame::StartPlaying
[00:00:05]: LOADING LUA
[00:00:05]: DoLuaFile scripts/main.lua
[00:00:05]: DoLuaFile loading buffer scripts/main.lua
[00:00:05]:   taskgrouplist:	default	Together	
[00:00:05]:   taskgrouplist:	classic	Classic	
[00:00:05]:   taskgrouplist:	cave_default	Underground	
[00:00:05]:   taskgrouplist:	lavaarena_taskset	The Forge	
[00:00:05]:   taskgrouplist:	quagmire_taskset	The Gorge	
[00:00:05]: running main.lua
	
[00:00:05]: unloading prefabs for mod MOD_workshop-375850593	
[00:00:05]: unloading prefabs for mod MOD_workshop-666155465	
[00:00:05]: unloading prefabs for mod MOD_workshop-374550642	
[00:00:05]: unloading prefabs for mod MOD_workshop-2078243581	
[00:00:05]: unloading prefabs for mod MOD_workshop-661253977	
[00:00:05]: unloading prefabs for mod MOD_workshop-378160973	
[00:00:05]: unloading prefabs for mod MOD_workshop-1207269058	
[00:00:05]: loaded modindex	
[00:00:05]: ModIndex: Beginning normal load sequence for dedicated server.
	
[00:00:05]: modoverrides.lua enabling workshop-1207269058	
[00:00:05]: modoverrides.lua enabling workshop-374550642	
[00:00:05]: modoverrides.lua enabling workshop-666155465	
[00:00:05]: modoverrides.lua enabling workshop-661253977	
[00:00:05]: modoverrides.lua enabling workshop-378160973	
[00:00:05]: modoverrides.lua enabling workshop-375850593	
[00:00:05]: modoverrides.lua enabling workshop-2078243581	
[00:00:05]: ModIndex:GetModsToLoad inserting moddir, 	workshop-1207269058	
[00:00:05]: ModIndex:GetModsToLoad inserting moddir, 	workshop-2078243581	
[00:00:05]: ModIndex:GetModsToLoad inserting moddir, 	workshop-374550642	
[00:00:05]: ModIndex:GetModsToLoad inserting moddir, 	workshop-375850593	
[00:00:05]: ModIndex:GetModsToLoad inserting moddir, 	workshop-378160973	
[00:00:05]: ModIndex:GetModsToLoad inserting moddir, 	workshop-661253977	
[00:00:05]: ModIndex:GetModsToLoad inserting moddir, 	workshop-666155465	
[00:00:05]: Could not load mod_config_data/modconfiguration_workshop-1207269058	
[00:00:05]: applying configuration_options from modoverrides.lua to mod workshop-1207269058	
[00:00:05]: applying configuration_options from modoverrides.lua to mod workshop-374550642	
[00:00:05]: Overriding mod workshop-374550642's option MAXSTACKSIZE with value 250	
[00:00:05]: applying configuration_options from modoverrides.lua to mod workshop-666155465	
[00:00:05]: Overriding mod workshop-666155465's option chestR with value -1	
[00:00:05]: Overriding mod workshop-666155465's option food_style with value 0	
[00:00:05]: Overriding mod workshop-666155465's option show_uses with value -1	
[00:00:05]: Overriding mod workshop-666155465's option show_food_units with value -1	
[00:00:05]: Overriding mod workshop-666155465's option lang with value auto	
[00:00:05]: Overriding mod workshop-666155465's option chestB with value -1	
[00:00:05]: Overriding mod workshop-666155465's option food_order with value 0	
[00:00:05]: Overriding mod workshop-666155465's option chestG with value -1	
[00:00:05]: Overriding mod workshop-666155465's option food_estimation with value -1	
[00:00:05]: applying configuration_options from modoverrides.lua to mod workshop-661253977	
[00:00:05]: Overriding mod workshop-661253977's option baodiao with value 1	
[00:00:05]: Overriding mod workshop-661253977's option amudiao with value true	
[00:00:05]: Overriding mod workshop-661253977's option zbdiao with value true	
[00:00:05]: Overriding mod workshop-661253977's option kong with value 0	
[00:00:05]: Overriding mod workshop-661253977's option rendiao with value 2	
[00:00:05]: applying configuration_options from modoverrides.lua to mod workshop-378160973	
[00:00:05]: Overriding mod workshop-378160973's option FIREOPTIONS with value 2	
[00:00:05]: Overriding mod workshop-378160973's option SHOWFIREICONS with value true	
[00:00:05]: Overriding mod workshop-378160973's option SHAREMINIMAPPROGRESS with value true	
[00:00:05]: Overriding mod workshop-378160973's option SHOWPLAYERICONS with value true	
[00:00:05]: Overriding mod workshop-378160973's option OVERRIDEMODE with value false	
[00:00:05]: Overriding mod workshop-378160973's option SHOWPLAYERSOPTIONS with value 2	
[00:00:05]: Overriding mod workshop-378160973's option ENABLEPINGS with value true	
[00:00:05]: applying configuration_options from modoverrides.lua to mod workshop-375850593	
[00:00:05]: applying configuration_options from modoverrides.lua to mod workshop-2078243581	
[00:00:05]: Overriding mod workshop-2078243581's option Type with value hit	
[00:00:05]: Overriding mod workshop-2078243581's option Blue with value 0	
[00:00:05]: Overriding mod workshop-2078243581's option Green with value 0	
[00:00:05]: Overriding mod workshop-2078243581's option Display with value target	
[00:00:05]: Overriding mod workshop-2078243581's option Projectile with value true	
[00:00:05]: Overriding mod workshop-2078243581's option Red with value 1	
[00:00:05]: Loading mod: workshop-1207269058 ( Simple Health Bar DST) Version:2.12	
[00:00:05]: Could not load mod_config_data/modconfiguration_workshop-2078243581	
[00:00:05]: applying configuration_options from modoverrides.lua to mod workshop-1207269058	
[00:00:05]: applying configuration_options from modoverrides.lua to mod workshop-374550642	
[00:00:05]: Overriding mod workshop-374550642's option MAXSTACKSIZE with value 250	
[00:00:05]: applying configuration_options from modoverrides.lua to mod workshop-666155465	
[00:00:05]: Overriding mod workshop-666155465's option chestR with value -1	
[00:00:05]: Overriding mod workshop-666155465's option food_style with value 0	
[00:00:05]: Overriding mod workshop-666155465's option show_uses with value -1	
[00:00:05]: Overriding mod workshop-666155465's option show_food_units with value -1	
[00:00:05]: Overriding mod workshop-666155465's option lang with value auto	
[00:00:05]: Overriding mod workshop-666155465's option chestB with value -1	
[00:00:05]: Overriding mod workshop-666155465's option food_order with value 0	
[00:00:05]: Overriding mod workshop-666155465's option chestG with value -1	
[00:00:05]: Overriding mod workshop-666155465's option food_estimation with value -1	
[00:00:05]: applying configuration_options from modoverrides.lua to mod workshop-661253977	
[00:00:05]: Overriding mod workshop-661253977's option baodiao with value 1	
[00:00:05]: Overriding mod workshop-661253977's option amudiao with value true	
[00:00:05]: Overriding mod workshop-661253977's option zbdiao with value true	
[00:00:05]: Overriding mod workshop-661253977's option kong with value 0	
[00:00:05]: Overriding mod workshop-661253977's option rendiao with value 2	
[00:00:05]: applying configuration_options from modoverrides.lua to mod workshop-378160973	
[00:00:05]: Overriding mod workshop-378160973's option FIREOPTIONS with value 2	
[00:00:05]: Overriding mod workshop-378160973's option SHOWFIREICONS with value true	
[00:00:05]: Overriding mod workshop-378160973's option SHAREMINIMAPPROGRESS with value true	
[00:00:05]: Overriding mod workshop-378160973's option SHOWPLAYERICONS with value true	
[00:00:05]: Overriding mod workshop-378160973's option OVERRIDEMODE with value false	
[00:00:05]: Overriding mod workshop-378160973's option SHOWPLAYERSOPTIONS with value 2	
[00:00:05]: Overriding mod workshop-378160973's option ENABLEPINGS with value true	
[00:00:05]: applying configuration_options from modoverrides.lua to mod workshop-375850593	
[00:00:05]: applying configuration_options from modoverrides.lua to mod workshop-2078243581	
[00:00:05]: Overriding mod workshop-2078243581's option Type with value hit	
[00:00:05]: Overriding mod workshop-2078243581's option Blue with value 0	
[00:00:05]: Overriding mod workshop-2078243581's option Green with value 0	
[00:00:05]: Overriding mod workshop-2078243581's option Display with value target	
[00:00:05]: Overriding mod workshop-2078243581's option Projectile with value true	
[00:00:05]: Overriding mod workshop-2078243581's option Red with value 1	
[00:00:05]: Loading mod: workshop-2078243581 (Display Attack Range) Version:1.5	
[00:00:05]: Could not load mod_config_data/modconfiguration_workshop-374550642	
[00:00:05]: applying configuration_options from modoverrides.lua to mod workshop-1207269058	
[00:00:05]: applying configuration_options from modoverrides.lua to mod workshop-374550642	
[00:00:05]: Overriding mod workshop-374550642's option MAXSTACKSIZE with value 250	
[00:00:05]: applying configuration_options from modoverrides.lua to mod workshop-666155465	
[00:00:05]: Overriding mod workshop-666155465's option chestR with value -1	
[00:00:05]: Overriding mod workshop-666155465's option food_style with value 0	
[00:00:05]: Overriding mod workshop-666155465's option show_uses with value -1	
[00:00:05]: Overriding mod workshop-666155465's option show_food_units with value -1	
[00:00:05]: Overriding mod workshop-666155465's option lang with value auto	
[00:00:05]: Overriding mod workshop-666155465's option chestB with value -1	
[00:00:05]: Overriding mod workshop-666155465's option food_order with value 0	
[00:00:05]: Overriding mod workshop-666155465's option chestG with value -1	
[00:00:05]: Overriding mod workshop-666155465's option food_estimation with value -1	
[00:00:05]: applying configuration_options from modoverrides.lua to mod workshop-661253977	
[00:00:05]: Overriding mod workshop-661253977's option baodiao with value 1	
[00:00:05]: Overriding mod workshop-661253977's option amudiao with value true	
[00:00:05]: Overriding mod workshop-661253977's option zbdiao with value true	
[00:00:05]: Overriding mod workshop-661253977's option kong with value 0	
[00:00:05]: Overriding mod workshop-661253977's option rendiao with value 2	
[00:00:05]: applying configuration_options from modoverrides.lua to mod workshop-378160973	
[00:00:05]: Overriding mod workshop-378160973's option FIREOPTIONS with value 2	
[00:00:05]: Overriding mod workshop-378160973's option SHOWFIREICONS with value true	
[00:00:05]: Overriding mod workshop-378160973's option SHAREMINIMAPPROGRESS with value true	
[00:00:05]: Overriding mod workshop-378160973's option SHOWPLAYERICONS with value true	
[00:00:05]: Overriding mod workshop-378160973's option OVERRIDEMODE with value false	
[00:00:05]: Overriding mod workshop-378160973's option SHOWPLAYERSOPTIONS with value 2	
[00:00:05]: Overriding mod workshop-378160973's option ENABLEPINGS with value true	
[00:00:05]: applying configuration_options from modoverrides.lua to mod workshop-375850593	
[00:00:05]: applying configuration_options from modoverrides.lua to mod workshop-2078243581	
[00:00:05]: Overriding mod workshop-2078243581's option Type with value hit	
[00:00:05]: Overriding mod workshop-2078243581's option Blue with value 0	
[00:00:05]: Overriding mod workshop-2078243581's option Green with value 0	
[00:00:05]: Overriding mod workshop-2078243581's option Display with value target	
[00:00:05]: Overriding mod workshop-2078243581's option Projectile with value true	
[00:00:05]: Overriding mod workshop-2078243581's option Red with value 1	
[00:00:05]: Loading mod: workshop-374550642 (Increased Stack size) Version:1.62	
[00:00:05]: Could not load mod_config_data/modconfiguration_workshop-375850593	
[00:00:05]: applying configuration_options from modoverrides.lua to mod workshop-1207269058	
[00:00:05]: applying configuration_options from modoverrides.lua to mod workshop-374550642	
[00:00:05]: Overriding mod workshop-374550642's option MAXSTACKSIZE with value 250	
[00:00:05]: applying configuration_options from modoverrides.lua to mod workshop-666155465	
[00:00:05]: Overriding mod workshop-666155465's option chestR with value -1	
[00:00:05]: Overriding mod workshop-666155465's option food_style with value 0	
[00:00:05]: Overriding mod workshop-666155465's option show_uses with value -1	
[00:00:05]: Overriding mod workshop-666155465's option show_food_units with value -1	
[00:00:05]: Overriding mod workshop-666155465's option lang with value auto	
[00:00:05]: Overriding mod workshop-666155465's option chestB with value -1	
[00:00:05]: Overriding mod workshop-666155465's option food_order with value 0	
[00:00:05]: Overriding mod workshop-666155465's option chestG with value -1	
[00:00:05]: Overriding mod workshop-666155465's option food_estimation with value -1	
[00:00:05]: applying configuration_options from modoverrides.lua to mod workshop-661253977	
[00:00:05]: Overriding mod workshop-661253977's option baodiao with value 1	
[00:00:05]: Overriding mod workshop-661253977's option amudiao with value true	
[00:00:05]: Overriding mod workshop-661253977's option zbdiao with value true	
[00:00:05]: Overriding mod workshop-661253977's option kong with value 0	
[00:00:05]: Overriding mod workshop-661253977's option rendiao with value 2	
[00:00:05]: applying configuration_options from modoverrides.lua to mod workshop-378160973	
[00:00:05]: Overriding mod workshop-378160973's option FIREOPTIONS with value 2	
[00:00:05]: Overriding mod workshop-378160973's option SHOWFIREICONS with value true	
[00:00:05]: Overriding mod workshop-378160973's option SHAREMINIMAPPROGRESS with value true	
[00:00:05]: Overriding mod workshop-378160973's option SHOWPLAYERICONS with value true	
[00:00:05]: Overriding mod workshop-378160973's option OVERRIDEMODE with value false	
[00:00:05]: Overriding mod workshop-378160973's option SHOWPLAYERSOPTIONS with value 2	
[00:00:05]: Overriding mod workshop-378160973's option ENABLEPINGS with value true	
[00:00:05]: applying configuration_options from modoverrides.lua to mod workshop-375850593	
[00:00:05]: applying configuration_options from modoverrides.lua to mod workshop-2078243581	
[00:00:05]: Overriding mod workshop-2078243581's option Type with value hit	
[00:00:05]: Overriding mod workshop-2078243581's option Blue with value 0	
[00:00:05]: Overriding mod workshop-2078243581's option Green with value 0	
[00:00:05]: Overriding mod workshop-2078243581's option Display with value target	
[00:00:05]: Overriding mod workshop-2078243581's option Projectile with value true	
[00:00:05]: Overriding mod workshop-2078243581's option Red with value 1	
[00:00:05]: Loading mod: workshop-375850593 (Extra Equip Slots) Version:1.8.0	
[00:00:05]: Could not load mod_config_data/modconfiguration_workshop-378160973	
[00:00:05]: applying configuration_options from modoverrides.lua to mod workshop-1207269058	
[00:00:05]: applying configuration_options from modoverrides.lua to mod workshop-374550642	
[00:00:05]: Overriding mod workshop-374550642's option MAXSTACKSIZE with value 250	
[00:00:05]: applying configuration_options from modoverrides.lua to mod workshop-666155465	
[00:00:05]: Overriding mod workshop-666155465's option chestR with value -1	
[00:00:05]: Overriding mod workshop-666155465's option food_style with value 0	
[00:00:05]: Overriding mod workshop-666155465's option show_uses with value -1	
[00:00:05]: Overriding mod workshop-666155465's option show_food_units with value -1	
[00:00:05]: Overriding mod workshop-666155465's option lang with value auto	
[00:00:05]: Overriding mod workshop-666155465's option chestB with value -1	
[00:00:05]: Overriding mod workshop-666155465's option food_order with value 0	
[00:00:05]: Overriding mod workshop-666155465's option chestG with value -1	
[00:00:05]: Overriding mod workshop-666155465's option food_estimation with value -1	
[00:00:05]: applying configuration_options from modoverrides.lua to mod workshop-661253977	
[00:00:05]: Overriding mod workshop-661253977's option baodiao with value 1	
[00:00:05]: Overriding mod workshop-661253977's option amudiao with value true	
[00:00:05]: Overriding mod workshop-661253977's option zbdiao with value true	
[00:00:05]: Overriding mod workshop-661253977's option kong with value 0	
[00:00:05]: Overriding mod workshop-661253977's option rendiao with value 2	
[00:00:05]: applying configuration_options from modoverrides.lua to mod workshop-378160973	
[00:00:05]: Overriding mod workshop-378160973's option FIREOPTIONS with value 2	
[00:00:05]: Overriding mod workshop-378160973's option SHOWFIREICONS with value true	
[00:00:05]: Overriding mod workshop-378160973's option SHAREMINIMAPPROGRESS with value true	
[00:00:05]: Overriding mod workshop-378160973's option SHOWPLAYERICONS with value true	
[00:00:05]: Overriding mod workshop-378160973's option OVERRIDEMODE with value false	
[00:00:05]: Overriding mod workshop-378160973's option SHOWPLAYERSOPTIONS with value 2	
[00:00:05]: Overriding mod workshop-378160973's option ENABLEPINGS with value true	
[00:00:05]: applying configuration_options from modoverrides.lua to mod workshop-375850593	
[00:00:05]: applying configuration_options from modoverrides.lua to mod workshop-2078243581	
[00:00:05]: Overriding mod workshop-2078243581's option Type with value hit	
[00:00:05]: Overriding mod workshop-2078243581's option Blue with value 0	
[00:00:05]: Overriding mod workshop-2078243581's option Green with value 0	
[00:00:05]: Overriding mod workshop-2078243581's option Display with value target	
[00:00:05]: Overriding mod workshop-2078243581's option Projectile with value true	
[00:00:05]: Overriding mod workshop-2078243581's option Red with value 1	
[00:00:05]: Loading mod: workshop-378160973 (Global Positions) Version:1.7.3	
[00:00:05]: Could not load mod_config_data/modconfiguration_workshop-661253977	
[00:00:05]: applying configuration_options from modoverrides.lua to mod workshop-1207269058	
[00:00:05]: applying configuration_options from modoverrides.lua to mod workshop-374550642	
[00:00:05]: Overriding mod workshop-374550642's option MAXSTACKSIZE with value 250	
[00:00:05]: applying configuration_options from modoverrides.lua to mod workshop-666155465	
[00:00:05]: Overriding mod workshop-666155465's option chestR with value -1	
[00:00:05]: Overriding mod workshop-666155465's option food_style with value 0	
[00:00:05]: Overriding mod workshop-666155465's option show_uses with value -1	
[00:00:05]: Overriding mod workshop-666155465's option show_food_units with value -1	
[00:00:05]: Overriding mod workshop-666155465's option lang with value auto	
[00:00:05]: Overriding mod workshop-666155465's option chestB with value -1	
[00:00:05]: Overriding mod workshop-666155465's option food_order with value 0	
[00:00:05]: Overriding mod workshop-666155465's option chestG with value -1	
[00:00:05]: Overriding mod workshop-666155465's option food_estimation with value -1	
[00:00:05]: applying configuration_options from modoverrides.lua to mod workshop-661253977	
[00:00:05]: Overriding mod workshop-661253977's option baodiao with value 1	
[00:00:05]: Overriding mod workshop-661253977's option amudiao with value true	
[00:00:05]: Overriding mod workshop-661253977's option zbdiao with value true	
[00:00:05]: Overriding mod workshop-661253977's option kong with value 0	
[00:00:05]: Overriding mod workshop-661253977's option rendiao with value 2	
[00:00:05]: applying configuration_options from modoverrides.lua to mod workshop-378160973	
[00:00:05]: Overriding mod workshop-378160973's option FIREOPTIONS with value 2	
[00:00:05]: Overriding mod workshop-378160973's option SHOWFIREICONS with value true	
[00:00:05]: Overriding mod workshop-378160973's option SHAREMINIMAPPROGRESS with value true	
[00:00:05]: Overriding mod workshop-378160973's option SHOWPLAYERICONS with value true	
[00:00:05]: Overriding mod workshop-378160973's option OVERRIDEMODE with value false	
[00:00:05]: Overriding mod workshop-378160973's option SHOWPLAYERSOPTIONS with value 2	
[00:00:05]: Overriding mod workshop-378160973's option ENABLEPINGS with value true	
[00:00:05]: applying configuration_options from modoverrides.lua to mod workshop-375850593	
[00:00:05]: applying configuration_options from modoverrides.lua to mod workshop-2078243581	
[00:00:05]: Overriding mod workshop-2078243581's option Type with value hit	
[00:00:05]: Overriding mod workshop-2078243581's option Blue with value 0	
[00:00:05]: Overriding mod workshop-2078243581's option Green with value 0	
[00:00:05]: Overriding mod workshop-2078243581's option Display with value target	
[00:00:05]: Overriding mod workshop-2078243581's option Projectile with value true	
[00:00:05]: Overriding mod workshop-2078243581's option Red with value 1	
[00:00:05]: Loading mod: workshop-661253977 ( Don't Drop Everything) Version:170403.21:59	
[00:00:05]: Could not load mod_config_data/modconfiguration_workshop-666155465	
[00:00:05]: applying configuration_options from modoverrides.lua to mod workshop-1207269058	
[00:00:05]: applying configuration_options from modoverrides.lua to mod workshop-374550642	
[00:00:05]: Overriding mod workshop-374550642's option MAXSTACKSIZE with value 250	
[00:00:05]: applying configuration_options from modoverrides.lua to mod workshop-666155465	
[00:00:05]: Overriding mod workshop-666155465's option chestR with value -1	
[00:00:05]: Overriding mod workshop-666155465's option food_style with value 0	
[00:00:05]: Overriding mod workshop-666155465's option show_uses with value -1	
[00:00:05]: Overriding mod workshop-666155465's option show_food_units with value -1	
[00:00:05]: Overriding mod workshop-666155465's option lang with value auto	
[00:00:05]: Overriding mod workshop-666155465's option chestB with value -1	
[00:00:05]: Overriding mod workshop-666155465's option food_order with value 0	
[00:00:05]: Overriding mod workshop-666155465's option chestG with value -1	
[00:00:05]: Overriding mod workshop-666155465's option food_estimation with value -1	
[00:00:05]: applying configuration_options from modoverrides.lua to mod workshop-661253977	
[00:00:05]: Overriding mod workshop-661253977's option baodiao with value 1	
[00:00:05]: Overriding mod workshop-661253977's option amudiao with value true	
[00:00:05]: Overriding mod workshop-661253977's option zbdiao with value true	
[00:00:05]: Overriding mod workshop-661253977's option kong with value 0	
[00:00:05]: Overriding mod workshop-661253977's option rendiao with value 2	
[00:00:05]: applying configuration_options from modoverrides.lua to mod workshop-378160973	
[00:00:05]: Overriding mod workshop-378160973's option FIREOPTIONS with value 2	
[00:00:05]: Overriding mod workshop-378160973's option SHOWFIREICONS with value true	
[00:00:05]: Overriding mod workshop-378160973's option SHAREMINIMAPPROGRESS with value true	
[00:00:05]: Overriding mod workshop-378160973's option SHOWPLAYERICONS with value true	
[00:00:05]: Overriding mod workshop-378160973's option OVERRIDEMODE with value false	
[00:00:05]: Overriding mod workshop-378160973's option SHOWPLAYERSOPTIONS with value 2	
[00:00:05]: Overriding mod workshop-378160973's option ENABLEPINGS with value true	
[00:00:05]: applying configuration_options from modoverrides.lua to mod workshop-375850593	
[00:00:05]: applying configuration_options from modoverrides.lua to mod workshop-2078243581	
[00:00:05]: Overriding mod workshop-2078243581's option Type with value hit	
[00:00:05]: Overriding mod workshop-2078243581's option Blue with value 0	
[00:00:05]: Overriding mod workshop-2078243581's option Green with value 0	
[00:00:05]: Overriding mod workshop-2078243581's option Display with value target	
[00:00:05]: Overriding mod workshop-2078243581's option Projectile with value true	
[00:00:05]: Overriding mod workshop-2078243581's option Red with value 1	
[00:00:05]: Loading mod: workshop-666155465 (Show Me (Origin)) Version:0.50	
[00:00:05]: Mod: workshop-375850593 (Extra Equip Slots)	Loading modworldgenmain.lua	
[00:00:05]: Mod: workshop-375850593 (Extra Equip Slots)	  Mod had no modworldgenmain.lua. Skipping.	
[00:00:05]: Mod: workshop-375850593 (Extra Equip Slots)	Loading modmain.lua	
[00:00:05]: Mod: workshop-666155465 (Show Me (Origin))	Loading modworldgenmain.lua	
[00:00:05]: Mod: workshop-666155465 (Show Me (Origin))	  Mod had no modworldgenmain.lua. Skipping.	
[00:00:05]: Mod: workshop-666155465 (Show Me (Origin))	Loading modmain.lua	
[00:00:05]: ShowMe version:	0.50	
[00:00:05]: show_food_units	-1	-1	-1	
[00:00:05]: show_uses	-1	-1	-1	
[00:00:05]: Mod: workshop-374550642 (Increased Stack size)	Loading modworldgenmain.lua	
[00:00:05]: Mod: workshop-374550642 (Increased Stack size)	  Mod had no modworldgenmain.lua. Skipping.	
[00:00:05]: Mod: workshop-374550642 (Increased Stack size)	Loading modmain.lua	
[00:00:05]: Mod: workshop-2078243581 (Display Attack Range)	Loading modworldgenmain.lua	
[00:00:05]: Mod: workshop-2078243581 (Display Attack Range)	  Mod had no modworldgenmain.lua. Skipping.	
[00:00:05]: Mod: workshop-2078243581 (Display Attack Range)	Loading modmain.lua	
[00:00:05]: Mod: workshop-661253977 ( Don't Drop Everything)	Loading modworldgenmain.lua	
[00:00:05]: Mod: workshop-661253977 ( Don't Drop Everything)	  Mod had no modworldgenmain.lua. Skipping.	
[00:00:05]: Mod: workshop-661253977 ( Don't Drop Everything)	Loading modmain.lua	
[00:00:05]: Mod: workshop-378160973 (Global Positions)	Loading modworldgenmain.lua	
[00:00:05]: Mod: workshop-378160973 (Global Positions)	  Mod had no modworldgenmain.lua. Skipping.	
[00:00:05]: Mod: workshop-378160973 (Global Positions)	Loading modmain.lua	
[00:00:05]: ModIndex:GetModsToLoad inserting moddir, 	workshop-1207269058	
[00:00:05]: ModIndex:GetModsToLoad inserting moddir, 	workshop-2078243581	
[00:00:05]: ModIndex:GetModsToLoad inserting moddir, 	workshop-374550642	
[00:00:05]: ModIndex:GetModsToLoad inserting moddir, 	workshop-375850593	
[00:00:05]: ModIndex:GetModsToLoad inserting moddir, 	workshop-378160973	
[00:00:05]: ModIndex:GetModsToLoad inserting moddir, 	workshop-661253977	
[00:00:05]: ModIndex:GetModsToLoad inserting moddir, 	workshop-666155465	
[00:00:05]: Mod: workshop-1207269058 ( Simple Health Bar DST)	Loading modworldgenmain.lua	
[00:00:05]: Mod: workshop-1207269058 ( Simple Health Bar DST)	  Mod had no modworldgenmain.lua. Skipping.	
[00:00:05]: Mod: workshop-1207269058 ( Simple Health Bar DST)	Loading modmain.lua	
[00:00:06]: Event data unavailable: lavaarena_event_server/lavaarena_achievement_quest_defs
[00:00:06]: LOADING LUA SUCCESS
[00:00:06]: Registering mod namespace "workshop-1207269058"
[00:00:06]: Registering mod namespace "showmeshint"
[00:00:06]: Registering mod namespace "workshop-378160973"
[00:00:06]: Registering mod namespace "showme"
[00:00:06]: PlayerDeaths could not load morgue	
[00:00:06]: PlayerHistory could not load player_history	
[00:00:06]: ServerPreferences could not load server_preferences	
[00:00:06]: bloom_enabled	false	
[00:00:06]: loaded saveindex	
[00:00:06]: OnFilesLoaded()	
[00:00:06]: OnUpdatePurchaseStateComplete	
[00:00:06]: Loading world: session/21C05CCEBEC4DA64/0000000020	
[00:00:06]: Save file is at version 5.04	
[00:00:06]: Klump load on boot started.	
[00:00:06]: Klump files loaded: 	0	
[00:00:06]: 	Unload FE	
[00:00:06]: 	Unload FE done	
[00:00:07]: AddPortMapping(10999, 10999, 192.168.1.8) failed with code 718 (ConflictInMappingEntry)
[00:00:07]: Mod: workshop-375850593 (Extra Equip Slots)	Registering prefabs	
[00:00:07]: Mod: workshop-375850593 (Extra Equip Slots)	  Registering default mod prefab	
[00:00:07]: Mod: workshop-666155465 (Show Me (Origin))	Registering prefabs	
[00:00:07]: Mod: workshop-666155465 (Show Me (Origin))	  Registering default mod prefab	
[00:00:07]: Mod: workshop-374550642 (Increased Stack size)	Registering prefabs	
[00:00:07]: Mod: workshop-374550642 (Increased Stack size)	  Registering default mod prefab	
[00:00:07]: Mod: workshop-2078243581 (Display Attack Range)	Registering prefabs	
[00:00:07]: Mod: workshop-2078243581 (Display Attack Range)	  Registering prefab file: prefabs/display_attack_range	
[00:00:07]: Mod: workshop-2078243581 (Display Attack Range)	    display_attack_range	
[00:00:07]: Mod: workshop-2078243581 (Display Attack Range)	  Registering default mod prefab	
[00:00:07]: Mod: workshop-661253977 ( Don't Drop Everything)	Registering prefabs	
[00:00:07]: Mod: workshop-661253977 ( Don't Drop Everything)	  Registering default mod prefab	
[00:00:07]: Mod: workshop-378160973 (Global Positions)	Registering prefabs	
[00:00:07]: Mod: workshop-378160973 (Global Positions)	  Registering prefab file: prefabs/globalposition_classified	
[00:00:07]: Mod: workshop-378160973 (Global Positions)	    globalposition_classified	
[00:00:07]: Mod: workshop-378160973 (Global Positions)	  Registering prefab file: prefabs/smoketrail	
[00:00:07]: Mod: workshop-378160973 (Global Positions)	    smoketrail	
[00:00:07]: Mod: workshop-378160973 (Global Positions)	  Registering prefab file: prefabs/globalmapicon_noproxy	
[00:00:07]: Mod: workshop-378160973 (Global Positions)	    globalmapicon_noproxy	
[00:00:07]: Mod: workshop-378160973 (Global Positions)	  Registering prefab file: prefabs/worldmapexplorer	
[00:00:07]: Mod: workshop-378160973 (Global Positions)	    worldmapexplorer	
[00:00:07]: Mod: workshop-378160973 (Global Positions)	  Registering prefab file: prefabs/pings	
[00:00:07]: Mod: workshop-378160973 (Global Positions)	    ping_generic	
[00:00:07]: Mod: workshop-378160973 (Global Positions)	    ping_omw	
[00:00:07]: Mod: workshop-378160973 (Global Positions)	    ping_danger	
[00:00:07]: Mod: workshop-378160973 (Global Positions)	    ping_explore	
[00:00:07]: Mod: workshop-378160973 (Global Positions)	    ping_gohere	
[00:00:07]: Mod: workshop-378160973 (Global Positions)	  Registering default mod prefab	
[00:00:07]: Mod: workshop-1207269058 ( Simple Health Bar DST)	Registering prefabs	
[00:00:07]: Mod: workshop-1207269058 ( Simple Health Bar DST)	  Registering prefab file: prefabs/dychealthbar	
[00:00:07]: Mod: workshop-1207269058 ( Simple Health Bar DST)	    dyc_damagedisplay	
[00:00:07]: Mod: workshop-1207269058 ( Simple Health Bar DST)	    dyc_healthbarchild	
[00:00:07]: Mod: workshop-1207269058 ( Simple Health Bar DST)	    dyc_healthbar	
[00:00:07]: Mod: workshop-1207269058 ( Simple Health Bar DST)	  Registering default mod prefab	
[00:00:07]: 	LOAD BE	
[00:00:10]: 	LOAD BE: done	
[00:00:10]: Begin Session: 21C05CCEBEC4DA64
[00:00:10]: saving to server_temp/server_save	
[00:00:10]: MiniMapComponent::AddAtlas( minimap/minimap_data.xml )
[00:00:10]: MiniMapComponent::AddAtlas( ../mods/workshop-378160973/minimap/campfire.xml )
[00:00:10]: MiniMapComponent::AddAtlas( ../mods/workshop-378160973/minimap/ping_generic.xml )
[00:00:10]: MiniMapComponent::AddAtlas( ../mods/workshop-378160973/minimap/ping_gohere.xml )
[00:00:10]: MiniMapComponent::AddAtlas( ../mods/workshop-378160973/minimap/ping_explore.xml )
[00:00:10]: MiniMapComponent::AddAtlas( ../mods/workshop-378160973/minimap/ping_danger.xml )
[00:00:10]: MiniMapComponent::AddAtlas( ../mods/workshop-378160973/minimap/ping_omw.xml )
[00:00:10]: Loading 17 new character(s)	
[00:00:10]: Total 17 character(s) loaded	
[00:00:11]: Loading Nav Grid	
[00:00:11]: World generated on version 418572, using seed: 1593845237	
[00:00:11]: setting 	summerlength	15	
[00:00:11]: setting 	isnightmaredawn	false	
[00:00:11]: setting 	elapseddaysinseason	17	
[00:00:11]: setting 	isfullmoon	false	
[00:00:11]: setting 	moisture	3332.3322753906	
[00:00:11]: setting 	springlength	20	
[00:00:11]: setting 	isnightmarewild	false	
[00:00:11]: setting 	moonphase	quarter	
[00:00:11]: setting 	precipitationrate	0	
[00:00:11]: setting 	iswet	false	
[00:00:11]: setting 	isnewmoon	false	
[00:00:11]: setting 	iswinter	false	
[00:00:11]: setting 	israining	false	
[00:00:11]: setting 	isnightmarewarn	false	
[00:00:11]: setting 	precipitation	none	
[00:00:11]: setting 	cavephase	day	
[00:00:11]: setting 	moistureceil	5628.6875	
[00:00:11]: setting 	isday	true	
[00:00:11]: setting 	iscaveday	true	
[00:00:11]: setting 	season	autumn	
[00:00:11]: setting 	timeinphase	0.84301045735677	
[00:00:11]: setting 	temperature	12.377727520032	
[00:00:11]: setting 	isnightmarecalm	false	
[00:00:11]: setting 	isnight	false	
[00:00:11]: setting 	isdusk	false	
[00:00:11]: setting 	iscavedusk	false	
[00:00:11]: setting 	isautumn	true	
[00:00:11]: setting 	issnowing	false	
[00:00:11]: setting 	iswaxingmoon	false	
[00:00:11]: setting 	pop	0.56979496625307	
[00:00:11]: setting 	snowlevel	0	
[00:00:11]: setting 	issnowcovered	false	
[00:00:11]: setting 	autumnlength	20	
[00:00:11]: setting 	phase	day	
[00:00:11]: setting 	nightmaretime	0	
[00:00:11]: setting 	winterlength	15	
[00:00:11]: setting 	isspring	false	
[00:00:11]: setting 	nightmarephase	none	
[00:00:11]: setting 	remainingdaysinseason	3	
[00:00:11]: setting 	cycles	17	
[00:00:11]: setting 	iscavenight	false	
[00:00:11]: setting 	nightmaretimeinphase	0	
[00:00:11]: setting 	wetness	0	
[00:00:11]: setting 	time	0.36881707509359	
[00:00:11]: setting 	issummer	false	
[00:00:15]: Reconstructing topology	
[00:00:15]: 	...Sorting points	
[00:00:15]: 	...Sorting edges	
[00:00:15]: 	...Connecting nodes	
[00:00:15]: 	...Validating connections	
[00:00:15]: 	...Housekeeping	
[00:00:15]: 	...Done!	
[00:00:15]: 1 uploads added to server. From server_temp
[00:00:15]: About to start a shard with these settings:
[00:00:15]:   ShardName: [SHDMASTER]
[00:00:15]:   ShardID: 1
[00:00:15]:   ShardRole: MASTER
[00:00:15]:   MasterHost: (null)
[00:00:15]:   MasterBind: 127.0.0.1
[00:00:15]:   MasterPort: 10888
[00:00:15]: [Shard] Starting master server
[00:00:15]: [Warning] Could not confirm port 10888 is open in the firewall. 
[00:00:15]: [Shard] Shard server started on port: 10888
[00:00:15]: [IPC] Signal 'DST_Master_Ready' opened  #00000630
[00:00:15]: [IPC] Sending signal... #00000630
[00:00:15]: Telling Client our new session identifier: 21C05CCEBEC4DA64
[00:00:15]: Check for write access: TRUE
[00:00:15]: Check for read access: TRUE
[00:00:15]: ModIndex: Load sequence finished successfully.	
[00:00:15]: Reset() returning
[00:00:15]: [Steam] SteamGameServer_Init(8766, 10999, 27016)
[00:00:15]: [Steam] SteamGameServer_Init success
[00:00:16]: Validating portal[3] <-> 2537021534[3] (inactive)	
[00:00:16]: Validating portal[4] <-> 2537021534[4] (inactive)	
[00:00:16]: Validating portal[10] <-> 2537021534[10] (inactive)	
[00:00:16]: Validating portal[8] <-> 2537021534[8] (inactive)	
[00:00:16]: Validating portal[1] <-> 2537021534[1] (inactive)	
[00:00:16]: Validating portal[9] <-> 2537021534[9] (inactive)	
[00:00:16]: Validating portal[2] <-> 2537021534[2] (inactive)	
[00:00:16]: Validating portal[6] <-> 2537021534[6] (inactive)	
[00:00:16]: Validating portal[5] <-> 2537021534[5] (inactive)	
[00:00:16]: Validating portal[7] <-> 2537021534[7] (inactive)	
[00:00:16]: Sim paused
[00:00:16]: Registering master server in Sing lobby
[00:00:16]: Gameserver logged on to Steam, assigned identity steamid:90136854496907274
[00:00:17]: [Shard] Slave Caves(2537021534) connected: [LAN] 127.0.0.1
[00:00:17]: [Shard] Slave Caves(2537021534) ready!
[00:00:17]: World 2537021534 is now connected	
[00:00:17]: Validating portal[3] <-> 2537021534[3] (disabled)	
[00:00:17]: Validating portal[4] <-> 2537021534[4] (active)	
[00:00:17]: Validating portal[10] <-> 2537021534[10] (active)	
[00:00:17]: Validating portal[8] <-> 2537021534[8] (active)	
[00:00:17]: Validating portal[1] <-> 2537021534[1] (disabled)	
[00:00:17]: Validating portal[9] <-> 2537021534[9] (disabled)	
[00:00:17]: Validating portal[2] <-> 2537021534[2] (disabled)	
[00:00:17]: Validating portal[6] <-> 2537021534[6] (disabled)	
[00:00:17]: Validating portal[5] <-> 2537021534[5] (disabled)	
[00:00:17]: Validating portal[7] <-> 2537021534[7] (disabled)	
[00:00:19]: New incoming connection 127.0.0.1|64172 <2372693108480056031>
[00:00:19]: Client connected from [LAN] 127.0.0.1|64172 <2372693108480056031>
[00:00:19]: ValidateGameSessionToken pgs-usc^KU_5rWXYUby^DontStarveTogether^WdgSff/YbrVLa/G8ZYzioremTF45P47jXJJLb+z8o6A= for <2372693108480056031>
[00:00:19]: Client authenticated: (KU_5rWXYUby) Leo
[00:00:19]: [Steam] Authenticated host '76561198303344074'
[00:00:20]: There is no active event to validate against.
[00:00:20]: [Shard] Read save location file for (KU_5rWXYUby)
[00:00:26]: Registering master server in Sing lobby
[00:00:30]: Resuming user: session/21C05CCEBEC4DA64/A7GNB0GOJQBS/0000000020
[00:00:30]: Spawning player at: [Load] (-456.54, -0.00, 29.56)	
[00:00:30]: Sim unpaused
[00:00:36]: Registering master server in Sing lobby
[00:00:54]: [P2P] Session request for '76561198131579933'
[00:00:58]: [P2P] Session request for '76561198260879329'
[00:00:59]: [P2P] Create session: 191.61.167.72|1 '76561198131579933'
[00:00:59]: [P2P] Received from 191.61.167.72|1 '76561198131579933'
[00:00:59]: [P2P] Sent to 191.61.167.72|1 '76561198131579933'
[00:01:00]: New incoming connection 191.61.167.72|1 <6743997848641515429>
[00:01:00]: Client connected from 191.61.167.72|1 <6743997848641515429>
[00:01:00]: ValidateGameSessionToken pgs-usc^KU_gw132zy8^DontStarveTogether^Ng2eiVmzZu96AUqYu1iMJ3XTrggfOKEdLk5Lt5JHY0E= for <6743997848641515429>
[00:01:00]: Client authenticated: (KU_gw132zy8) HoD|Dark.Lord
[00:01:00]: [Steam] SendUserConnectAndAuthenticate for '76561198131579933'
[00:01:01]: [Steam] Authenticated client '76561198131579933'
[00:01:02]: There is no active event to validate against.
[00:01:02]: [Shard] Read save location file for (KU_gw132zy8)
[00:01:04]: [P2P] Create session: 191.61.167.73|1 '76561198260879329'
[00:01:04]: [P2P] Received from 191.61.167.73|1 '76561198260879329'
[00:01:04]: [P2P] Sent to 191.61.167.73|1 '76561198260879329'
[00:01:04]: New incoming connection 191.61.167.73|1 <2064944116597586404>
[00:01:04]: Client connected from 191.61.167.73|1 <2064944116597586404>
[00:01:04]: ValidateGameSessionToken pgs-usc^KU_Gi0-qiKx^DontStarveTogether^ll3a8mxcDaEVc+8ao5BhUPrrHC3645VN5c+hZMEzA0A= for <2064944116597586404>
[00:01:05]: Client authenticated: (KU_Gi0-qiKx) vdquang1709
[00:01:05]: [Steam] SendUserConnectAndAuthenticate for '76561198260879329'
[00:01:05]: [Steam] Authenticated client '76561198260879329'
[00:01:06]: There is no active event to validate against.
[00:01:06]: [Shard] Read save location file for (KU_Gi0-qiKx)
[00:01:11]: Registering master server in Sing lobby
[00:01:23]: Resuming user: session/21C05CCEBEC4DA64/A7I2O0VD5H9R
[00:01:30]: Spawn request: wilson from vdquang1709
[00:01:30]: Skin request: () (body_polo_blue_cornflower) () (legs_swing_pants_navy_midnight) (feet_captoe_shoe_black_jet)
[00:01:30]: Spawning player at: [Fixed] (290.00, 0.00, 254.00)	
[00:01:30]: Serializing user: session/21C05CCEBEC4DA64/A7I2O0VD5H9R/0000000021
[00:01:30]: Registering master server in Sing lobby
[00:02:09]: Resuming user: session/21C05CCEBEC4DA64/A7LBK11GNNO8/0000000020
[00:02:09]: Spawning player at: [Load] (-266.81, 0.00, -21.95)	
[00:02:09]: Registering master server in Sing lobby
[00:05:34]: Serializing user: session/21C05CCEBEC4DA64/A7GNB0GOJQBS/0000000021
[00:05:34]: Serializing user: session/21C05CCEBEC4DA64/A7I2O0VD5H9R/0000000021
[00:05:34]: Serializing user: session/21C05CCEBEC4DA64/A7LBK11GNNO8/0000000021
[00:05:34]: Serializing world: session/21C05CCEBEC4DA64/0000000021
[00:05:39]: Registering master server in Sing lobby
[00:13:33]: Registering master server in Sing lobby
[00:13:34]: Serializing user: session/21C05CCEBEC4DA64/A7GNB0GOJQBS/0000000022
[00:13:34]: Serializing user: session/21C05CCEBEC4DA64/A7I2O0VD5H9R/0000000022
[00:13:34]: Serializing user: session/21C05CCEBEC4DA64/A7LBK11GNNO8/0000000022
[00:13:35]: Serializing world: session/21C05CCEBEC4DA64/0000000022
[00:21:35]: Serializing user: session/21C05CCEBEC4DA64/A7GNB0GOJQBS/0000000023
[00:21:35]: Serializing user: session/21C05CCEBEC4DA64/A7I2O0VD5H9R/0000000023
[00:21:35]: Serializing user: session/21C05CCEBEC4DA64/A7LBK11GNNO8/0000000023
[00:21:35]: Serializing world: session/21C05CCEBEC4DA64/0000000023
[00:21:38]: Registering master server in Sing lobby
[00:29:35]: Serializing user: session/21C05CCEBEC4DA64/A7GNB0GOJQBS/0000000024
[00:29:35]: Serializing user: session/21C05CCEBEC4DA64/A7I2O0VD5H9R/0000000024
[00:29:35]: Serializing user: session/21C05CCEBEC4DA64/A7LBK11GNNO8/0000000024
[00:29:35]: Serializing world: session/21C05CCEBEC4DA64/0000000024
[00:29:44]: Registering master server in Sing lobby
[00:30:04]: [200] Account Communication Success (6)
[00:30:04]: Received (KU_5rWXYUby) from TokenPurpose
[00:37:34]: Registering master server in Sing lobby
[00:37:35]: Serializing user: session/21C05CCEBEC4DA64/A7GNB0GOJQBS/0000000025
[00:37:35]: Serializing user: session/21C05CCEBEC4DA64/A7I2O0VD5H9R/0000000025
[00:37:35]: Serializing user: session/21C05CCEBEC4DA64/A7LBK11GNNO8/0000000025
[00:37:35]: Serializing world: session/21C05CCEBEC4DA64/0000000025
[00:45:35]: Serializing user: session/21C05CCEBEC4DA64/A7GNB0GOJQBS/0000000026
[00:45:35]: Serializing user: session/21C05CCEBEC4DA64/A7I2O0VD5H9R/0000000026
[00:45:35]: Serializing user: session/21C05CCEBEC4DA64/A7LBK11GNNO8/0000000026
[00:45:35]: Serializing world: session/21C05CCEBEC4DA64/0000000026
[00:45:39]: Registering master server in Sing lobby
[00:53:35]: Serializing user: session/21C05CCEBEC4DA64/A7GNB0GOJQBS/0000000027
[00:53:35]: Serializing user: session/21C05CCEBEC4DA64/A7I2O0VD5H9R/0000000027
[00:53:35]: Serializing user: session/21C05CCEBEC4DA64/A7LBK11GNNO8/0000000027
[00:53:36]: Serializing world: session/21C05CCEBEC4DA64/0000000027
[00:53:44]: Registering master server in Sing lobby
[00:58:55]: Validating portal[7] <-> 2537021534[7] (active)	
[01:00:04]: [200] Account Communication Success (6)
[01:00:04]: Received (KU_5rWXYUby) from TokenPurpose
[01:01:35]: Registering master server in Sing lobby
[01:01:36]: Serializing user: session/21C05CCEBEC4DA64/A7GNB0GOJQBS/0000000028
[01:01:36]: Serializing user: session/21C05CCEBEC4DA64/A7I2O0VD5H9R/0000000028
[01:01:36]: Serializing user: session/21C05CCEBEC4DA64/A7LBK11GNNO8/0000000028
[01:01:36]: Serializing world: session/21C05CCEBEC4DA64/0000000028
[01:08:35]: Could not find anim [death] in bank [ghost]
[01:08:35]: Serializing user: session/21C05CCEBEC4DA64/A7I2O0VD5H9R/0000000029
[01:09:36]: Serializing user: session/21C05CCEBEC4DA64/A7GNB0GOJQBS/0000000029
[01:09:36]: Serializing user: session/21C05CCEBEC4DA64/A7I2O0VD5H9R/0000000029
[01:09:36]: Serializing user: session/21C05CCEBEC4DA64/A7LBK11GNNO8/0000000029
[01:09:36]: Serializing world: session/21C05CCEBEC4DA64/0000000029
[01:09:40]: Registering master server in Sing lobby
[01:10:11]: Could not find anim [idle_loop] in bank [ghost]
[01:10:14]: Could not find anim [transform] in bank [wilson]
[01:10:15]: Serializing user: session/21C05CCEBEC4DA64/A7I2O0VD5H9R/0000000030
[01:15:35]: [Steam] SendUserDisconnect for '76561198131579933'
[01:15:35]: Connection lost to 191.61.167.72|1 <6743997848641515429>
[01:15:35]: [Shard] (KU_gw132zy8) disconnected from [SHDMASTER](1)
[01:15:35]: Serializing user: session/21C05CCEBEC4DA64/A7LBK11GNNO8/0000000030
[01:15:40]: Registering master server in Sing lobby
[01:16:00]: [P2P] Connection failed for '76561198131579933'
[01:17:35]: Registering master server in Sing lobby
[01:17:36]: Serializing user: session/21C05CCEBEC4DA64/A7GNB0GOJQBS/0000000030
[01:17:36]: Serializing user: session/21C05CCEBEC4DA64/A7I2O0VD5H9R/0000000030
[01:17:36]: Serializing world: session/21C05CCEBEC4DA64/0000000030
[01:25:35]: [P2P] Session timed out for '76561198131579933'
[01:25:35]: [P2P] Remove session: 191.61.167.72|1 '76561198131579933'
[01:25:36]: Serializing user: session/21C05CCEBEC4DA64/A7GNB0GOJQBS/0000000031
[01:25:36]: Serializing user: session/21C05CCEBEC4DA64/A7I2O0VD5H9R/0000000031
[01:25:36]: Serializing world: session/21C05CCEBEC4DA64/0000000031
[01:25:40]: Registering master server in Sing lobby
[01:30:05]: [200] Account Communication Success (6)
[01:30:05]: Received (KU_5rWXYUby) from TokenPurpose
[01:33:36]: Serializing user: session/21C05CCEBEC4DA64/A7GNB0GOJQBS/0000000032
[01:33:36]: Serializing user: session/21C05CCEBEC4DA64/A7I2O0VD5H9R/0000000032
[01:33:37]: Serializing world: session/21C05CCEBEC4DA64/0000000032
[01:33:45]: Registering master server in Sing lobby
[01:41:36]: Registering master server in Sing lobby
[01:41:37]: Serializing user: session/21C05CCEBEC4DA64/A7GNB0GOJQBS/0000000033
[01:41:37]: Serializing user: session/21C05CCEBEC4DA64/A7I2O0VD5H9R/0000000033
[01:41:37]: Serializing world: session/21C05CCEBEC4DA64/0000000033
[01:49:37]: Serializing user: session/21C05CCEBEC4DA64/A7GNB0GOJQBS/0000000034
[01:49:37]: Serializing user: session/21C05CCEBEC4DA64/A7I2O0VD5H9R/0000000034
[01:49:37]: Serializing world: session/21C05CCEBEC4DA64/0000000034
[01:49:41]: Registering master server in Sing lobby
[01:57:37]: Serializing user: session/21C05CCEBEC4DA64/A7GNB0GOJQBS/0000000035
[01:57:37]: Serializing user: session/21C05CCEBEC4DA64/A7I2O0VD5H9R/0000000035
[01:57:37]: Serializing world: session/21C05CCEBEC4DA64/0000000035
[01:57:46]: Registering master server in Sing lobby
[02:00:04]: [200] Account Communication Success (6)
[02:00:04]: Received (KU_5rWXYUby) from TokenPurpose
[02:01:06]: [P2P] Create session: 191.61.167.74|1 '76561198131579933'
[02:01:06]: [P2P] Received from 191.61.167.74|1 '76561198131579933'
[02:01:06]: [P2P] Sent to 191.61.167.74|1 '76561198131579933'
[02:01:06]: New incoming connection 191.61.167.74|1 <5400756572546134584>
[02:01:06]: Client connected from 191.61.167.74|1 <5400756572546134584>
[02:01:06]: ValidateGameSessionToken pgs-usc^KU_gw132zy8^DontStarveTogether^lIAE6EZT7AflhERqCLtQaYWmNBpJPJ3NF14/VlMNC0c= for <5400756572546134584>
[02:01:07]: Client authenticated: (KU_gw132zy8) HoD|Dark.Lord
[02:01:07]: [Steam] SendUserConnectAndAuthenticate for '76561198131579933'
[02:01:07]: [Steam] Authenticated client '76561198131579933'
[02:01:08]: There is no active event to validate against.
[02:01:08]: [Shard] Read save location file for (KU_gw132zy8)
[02:01:16]: Registering master server in Sing lobby
[02:01:39]: Resuming user: session/21C05CCEBEC4DA64/A7LBK11GNNO8/0000000030
[02:01:39]: Spawning player at: [Load] (414.33, 0.00, 496.07)	
[02:01:39]: Registering master server in Sing lobby
[02:05:36]: Registering master server in Sing lobby
[02:05:37]: Serializing user: session/21C05CCEBEC4DA64/A7GNB0GOJQBS/0000000036
[02:05:37]: Serializing user: session/21C05CCEBEC4DA64/A7I2O0VD5H9R/0000000036
[02:05:37]: Serializing user: session/21C05CCEBEC4DA64/A7LBK11GNNO8/0000000036
[02:05:38]: Serializing world: session/21C05CCEBEC4DA64/0000000036
[02:13:38]: Serializing user: session/21C05CCEBEC4DA64/A7GNB0GOJQBS/0000000037
[02:13:38]: Serializing user: session/21C05CCEBEC4DA64/A7I2O0VD5H9R/0000000037
[02:13:38]: Serializing user: session/21C05CCEBEC4DA64/A7LBK11GNNO8/0000000037
[02:13:38]: Serializing world: session/21C05CCEBEC4DA64/0000000037
[02:13:41]: Registering master server in Sing lobby
[02:21:38]: Serializing user: session/21C05CCEBEC4DA64/A7GNB0GOJQBS/0000000038
[02:21:38]: Serializing user: session/21C05CCEBEC4DA64/A7I2O0VD5H9R/0000000038
[02:21:38]: Serializing user: session/21C05CCEBEC4DA64/A7LBK11GNNO8/0000000038
[02:21:38]: Serializing world: session/21C05CCEBEC4DA64/0000000038
[02:21:46]: Registering master server in Sing lobby
[02:29:37]: Registering master server in Sing lobby
[02:29:38]: Serializing user: session/21C05CCEBEC4DA64/A7GNB0GOJQBS/0000000039
[02:29:38]: Serializing user: session/21C05CCEBEC4DA64/A7I2O0VD5H9R/0000000039
[02:29:38]: Serializing user: session/21C05CCEBEC4DA64/A7LBK11GNNO8/0000000039
[02:29:38]: Serializing world: session/21C05CCEBEC4DA64/0000000039
[02:30:04]: [200] Account Communication Success (6)
[02:30:04]: Received (KU_5rWXYUby) from TokenPurpose
[02:35:55]: Could not find anim [death] in bank [ghost]
[02:35:55]: Serializing user: session/21C05CCEBEC4DA64/A7I2O0VD5H9R/0000000040
[02:36:34]: Could not find anim [idle_loop] in bank [ghost]
[02:36:37]: Could not find anim [transform] in bank [wilson]
[02:36:38]: Serializing user: session/21C05CCEBEC4DA64/A7I2O0VD5H9R/0000000040
[02:37:38]: Serializing user: session/21C05CCEBEC4DA64/A7GNB0GOJQBS/0000000040
[02:37:38]: Serializing user: session/21C05CCEBEC4DA64/A7I2O0VD5H9R/0000000040
[02:37:38]: Serializing user: session/21C05CCEBEC4DA64/A7LBK11GNNO8/0000000040
[02:37:38]: Serializing world: session/21C05CCEBEC4DA64/0000000040
[02:37:42]: Registering master server in Sing lobby
[02:45:38]: Serializing user: session/21C05CCEBEC4DA64/A7GNB0GOJQBS/0000000041
[02:45:38]: Serializing user: session/21C05CCEBEC4DA64/A7I2O0VD5H9R/0000000041
[02:45:39]: Serializing user: session/21C05CCEBEC4DA64/A7LBK11GNNO8/0000000041
[02:45:39]: Serializing world: session/21C05CCEBEC4DA64/0000000041
[02:45:47]: Registering master server in Sing lobby
[02:53:38]: Registering master server in Sing lobby
[02:53:39]: Serializing user: session/21C05CCEBEC4DA64/A7GNB0GOJQBS/0000000042
[02:53:39]: Serializing user: session/21C05CCEBEC4DA64/A7I2O0VD5H9R/0000000042
[02:53:39]: Serializing user: session/21C05CCEBEC4DA64/A7LBK11GNNO8/0000000042
[02:53:39]: Serializing world: session/21C05CCEBEC4DA64/0000000042
[03:00:05]: [200] Account Communication Success (6)
[03:00:05]: Received (KU_5rWXYUby) from TokenPurpose
[03:01:39]: Serializing user: session/21C05CCEBEC4DA64/A7GNB0GOJQBS/0000000043
[03:01:39]: Serializing user: session/21C05CCEBEC4DA64/A7I2O0VD5H9R/0000000043
[03:01:39]: Serializing user: session/21C05CCEBEC4DA64/A7LBK11GNNO8/0000000043
[03:01:39]: Serializing world: session/21C05CCEBEC4DA64/0000000043
[03:01:43]: Registering master server in Sing lobby
[03:09:39]: Serializing user: session/21C05CCEBEC4DA64/A7GNB0GOJQBS/0000000044
[03:09:39]: Serializing user: session/21C05CCEBEC4DA64/A7I2O0VD5H9R/0000000044
[03:09:39]: Serializing user: session/21C05CCEBEC4DA64/A7LBK11GNNO8/0000000044
[03:09:39]: Serializing world: session/21C05CCEBEC4DA64/0000000044
[03:09:48]: Registering master server in Sing lobby
[03:10:42]: [Steam] SendUserDisconnect for '76561198303344074'
[03:10:42]: [Shard] (KU_5rWXYUby) disconnected from [SHDMASTER](1)
[03:10:42]: [IPC] Received shutdown signal.
[03:10:42]: Serializing user: session/21C05CCEBEC4DA64/A7GNB0GOJQBS/0000000045
[03:10:42]: Serializing user: session/21C05CCEBEC4DA64/A7I2O0VD5H9R/0000000045
[03:10:42]: Serializing user: session/21C05CCEBEC4DA64/A7LBK11GNNO8/0000000045
[03:10:42]: Serializing world: session/21C05CCEBEC4DA64/0000000045
[03:10:42]: Truncating to snapshot #45...
[03:10:42]:  - session/21C05CCEBEC4DA64/0000000015
[03:10:42]:  - session/21C05CCEBEC4DA64/0000000016
[03:10:42]:  - session/21C05CCEBEC4DA64/0000000017
[03:10:42]:  - session/21C05CCEBEC4DA64/0000000018
[03:10:42]:  - session/21C05CCEBEC4DA64/0000000019
[03:10:42]:  - session/21C05CCEBEC4DA64/0000000020
[03:10:42]:  - session/21C05CCEBEC4DA64/0000000021
[03:10:42]:  - session/21C05CCEBEC4DA64/0000000022
[03:10:42]:  - session/21C05CCEBEC4DA64/0000000023
[03:10:42]:  - session/21C05CCEBEC4DA64/0000000024
[03:10:42]:  - session/21C05CCEBEC4DA64/0000000025
[03:10:42]:  - session/21C05CCEBEC4DA64/0000000026
[03:10:42]:  - session/21C05CCEBEC4DA64/0000000027
[03:10:42]:  - session/21C05CCEBEC4DA64/0000000028
[03:10:42]:  - session/21C05CCEBEC4DA64/0000000029
[03:10:42]:  - session/21C05CCEBEC4DA64/0000000030
[03:10:42]:  - session/21C05CCEBEC4DA64/0000000031
[03:10:42]:  - session/21C05CCEBEC4DA64/0000000032
[03:10:42]:  - session/21C05CCEBEC4DA64/0000000033
[03:10:42]:  - session/21C05CCEBEC4DA64/0000000034
[03:10:42]:  - session/21C05CCEBEC4DA64/0000000035
[03:10:42]:  - session/21C05CCEBEC4DA64/0000000036
[03:10:42]:  - session/21C05CCEBEC4DA64/0000000037
[03:10:42]:  - session/21C05CCEBEC4DA64/0000000038
[03:10:42]:  - session/21C05CCEBEC4DA64/0000000039
[03:10:42]:  - session/21C05CCEBEC4DA64/A7GNB0GOJQBS/0000000039
[03:10:42]:  - session/21C05CCEBEC4DA64/A7GNB0GOJQBS/0000000038
[03:10:42]:  - session/21C05CCEBEC4DA64/A7GNB0GOJQBS/0000000037
[03:10:42]:  - session/21C05CCEBEC4DA64/A7GNB0GOJQBS/0000000036
[03:10:42]:  - session/21C05CCEBEC4DA64/A7GNB0GOJQBS/0000000035
[03:10:42]:  - session/21C05CCEBEC4DA64/A7GNB0GOJQBS/0000000034
[03:10:42]:  - session/21C05CCEBEC4DA64/A7GNB0GOJQBS/0000000033
[03:10:42]:  - session/21C05CCEBEC4DA64/A7GNB0GOJQBS/0000000032
[03:10:42]:  - session/21C05CCEBEC4DA64/A7GNB0GOJQBS/0000000031
[03:10:42]:  - session/21C05CCEBEC4DA64/A7GNB0GOJQBS/0000000030
[03:10:42]:  - session/21C05CCEBEC4DA64/A7GNB0GOJQBS/0000000029
[03:10:42]:  - session/21C05CCEBEC4DA64/A7GNB0GOJQBS/0000000028
[03:10:42]:  - session/21C05CCEBEC4DA64/A7GNB0GOJQBS/0000000027
[03:10:42]:  - session/21C05CCEBEC4DA64/A7GNB0GOJQBS/0000000026
[03:10:42]:  - session/21C05CCEBEC4DA64/A7GNB0GOJQBS/0000000025
[03:10:42]:  - session/21C05CCEBEC4DA64/A7GNB0GOJQBS/0000000024
[03:10:42]:  - session/21C05CCEBEC4DA64/A7GNB0GOJQBS/0000000023
[03:10:42]:  - session/21C05CCEBEC4DA64/A7GNB0GOJQBS/0000000022
[03:10:42]:  - session/21C05CCEBEC4DA64/A7GNB0GOJQBS/0000000021
[03:10:42]:  - session/21C05CCEBEC4DA64/A7GNB0GOJQBS/0000000020
[03:10:42]:  - session/21C05CCEBEC4DA64/A7GNB0GOJQBS/0000000019
[03:10:42]:  - session/21C05CCEBEC4DA64/A7GNB0GOJQBS/0000000018
[03:10:42]:  - session/21C05CCEBEC4DA64/A7GNB0GOJQBS/0000000017
[03:10:42]:  - session/21C05CCEBEC4DA64/A7GNB0GOJQBS/0000000016
[03:10:42]:  - session/21C05CCEBEC4DA64/A7GNB0GOJQBS/0000000015
[03:10:42]:  - session/21C05CCEBEC4DA64/A7I2O0VD5H9R/0000000039
[03:10:42]:  - session/21C05CCEBEC4DA64/A7I2O0VD5H9R/0000000038
[03:10:42]:  - session/21C05CCEBEC4DA64/A7I2O0VD5H9R/0000000037
[03:10:42]:  - session/21C05CCEBEC4DA64/A7I2O0VD5H9R/0000000036
[03:10:42]:  - session/21C05CCEBEC4DA64/A7I2O0VD5H9R/0000000035
[03:10:42]:  - session/21C05CCEBEC4DA64/A7I2O0VD5H9R/0000000034
[03:10:42]:  - session/21C05CCEBEC4DA64/A7I2O0VD5H9R/0000000033
[03:10:42]:  - session/21C05CCEBEC4DA64/A7I2O0VD5H9R/0000000032
[03:10:42]:  - session/21C05CCEBEC4DA64/A7I2O0VD5H9R/0000000031
[03:10:42]:  - session/21C05CCEBEC4DA64/A7I2O0VD5H9R/0000000030
[03:10:42]:  - session/21C05CCEBEC4DA64/A7I2O0VD5H9R/0000000029
[03:10:42]:  - session/21C05CCEBEC4DA64/A7I2O0VD5H9R/0000000028
[03:10:42]:  - session/21C05CCEBEC4DA64/A7I2O0VD5H9R/0000000027
[03:10:42]:  - session/21C05CCEBEC4DA64/A7I2O0VD5H9R/0000000026
[03:10:42]:  - session/21C05CCEBEC4DA64/A7I2O0VD5H9R/0000000025
[03:10:42]:  - session/21C05CCEBEC4DA64/A7I2O0VD5H9R/0000000024
[03:10:42]:  - session/21C05CCEBEC4DA64/A7I2O0VD5H9R/0000000023
[03:10:42]:  - session/21C05CCEBEC4DA64/A7I2O0VD5H9R/0000000022
[03:10:42]:  - session/21C05CCEBEC4DA64/A7I2O0VD5H9R/0000000021
[03:10:42]:  - session/21C05CCEBEC4DA64/A7LBK11GNNO8/0000000039
[03:10:42]:  - session/21C05CCEBEC4DA64/A7LBK11GNNO8/0000000038
[03:10:42]:  - session/21C05CCEBEC4DA64/A7LBK11GNNO8/0000000037
[03:10:42]:  - session/21C05CCEBEC4DA64/A7LBK11GNNO8/0000000036
[03:10:42]:  - session/21C05CCEBEC4DA64/A7LBK11GNNO8/0000000030
[03:10:42]:  - session/21C05CCEBEC4DA64/A7LBK11GNNO8/0000000029
[03:10:42]:  - session/21C05CCEBEC4DA64/A7LBK11GNNO8/0000000028
[03:10:42]:  - session/21C05CCEBEC4DA64/A7LBK11GNNO8/0000000027
[03:10:42]:  - session/21C05CCEBEC4DA64/A7LBK11GNNO8/0000000026
[03:10:42]:  - session/21C05CCEBEC4DA64/A7LBK11GNNO8/0000000025
[03:10:42]:  - session/21C05CCEBEC4DA64/A7LBK11GNNO8/0000000024
[03:10:42]:  - session/21C05CCEBEC4DA64/A7LBK11GNNO8/0000000023
[03:10:42]:  - session/21C05CCEBEC4DA64/A7LBK11GNNO8/0000000022
[03:10:42]:  - session/21C05CCEBEC4DA64/A7LBK11GNNO8/0000000021
[03:10:42]:  - session/21C05CCEBEC4DA64/A7LBK11GNNO8/0000000020
[03:10:42]:  - session/21C05CCEBEC4DA64/A7LBK11GNNO8/0000000019
[03:10:42]:  - session/21C05CCEBEC4DA64/A7LBK11GNNO8/0000000018
[03:10:42]:  - session/21C05CCEBEC4DA64/A7LBK11GNNO8/0000000017
[03:10:42]:  - session/21C05CCEBEC4DA64/A7LBK11GNNO8/0000000016
[03:10:42]:  - session/21C05CCEBEC4DA64/A7LBK11GNNO8/0000000015
[03:10:42]:    89 file(s) removed
[03:10:42]: Removing server from Sing lobby
[03:10:43]: [Shard] Stopping shard mode
[03:10:43]: Collecting garbage...
[03:10:43]: lua_gc took 0.17 seconds
[03:10:43]: ~ShardLuaProxy()
[03:10:43]: ~cEventLeaderboardProxy()
[03:10:43]: ~ItemServerLuaProxy()
[03:10:43]: ~InventoryLuaProxy()
[03:10:43]: ~NetworkLuaProxy()
[03:10:43]: ~SimLuaProxy()
[03:10:43]: Cancelling LuaQueryCallback handle [285]
[03:10:43]: Cancelling LuaQueryCallback handle [286]
[03:10:43]: Cancelling LuaQueryCallback handle [287]
[03:10:44]: lua_close took 0.32 seconds
[03:10:44]: Orphaned unnamed resource. This resource must have used Add( resource ) to insert itself into the manager. 
[03:10:44]: CurlRequestManager::ClientThread::Main() complete
[03:10:44]: HttpClient2 discarded 0 callbacks.
[03:10:44]: Shutting down
